  0
SECTION
  2
HEADER
  9
$ANGBASE
  50
0.0
  9
$ANGDIR
  70
1
  9
$MEASUREMENT
  70
1
  0
ENDSEC
  0
SECTION
  2
TABLES
  0
TABLE
  2
LTYPE
  70
4
  0
LTYPE
  5
40F
  2
CONTINUOUS
  70
0
  3
Solid line
  72
65
  73
0
  40
0.0
  0
LTYPE
  5
410
  2
DASHDOT
 70
0
  3
Dash Dot ____ _ ____ _
 72
65
 73
4
 40
2.0
 49
1.25
 49
-0.25
 49
0.25
 49
-0.25
  0
LTYPE
  5
411
  2
DASHED
 70
0
  3
Dashed __ __ __ __ __
 72
65
 73
2
 40
0.75
 49
0.5
 49
-0.25
  0
LTYPE
  5
43B
  2
DOTTED
 70
0
  3
Dotted .  .  .  .
 72
65
 73
2
 40
0.2
 49
0.0
 49
-0.2
  0
ENDTAB
  0
TABLE
  2
STYLE
  70
4
  0
STYLE
  2
KICAD
  70
0
  40
0
  41
1
  42
1
  50
0
  71
0
  3
isocp.shx
  0
STYLE
  2
KICADB
  70
0
  40
0
  41
1
  42
1
  50
0
  71
0
  3
isocp.shx
  0
STYLE
  2
KICADI
  70
0
  40
0
  41
1
  42
1
  50
15
  71
0
  3
isocp.shx
  0
STYLE
  2
KICADBI
  70
0
  40
0
  41
1
  42
1
  50
15
  71
0
  3
isocp.shx
  0
ENDTAB
  0
TABLE
  2
LAYER
  70
1
  0
LAYER
  2
BLACK
  70
0
  62
7
  6
CONTINUOUS
  0
ENDTAB
  0
ENDSEC
  0
SECTION
  2
ENTITIES
0
LINE
8
BLACK
6
CONTINUOUS
10
76.5346299999999928
20
-116.1503569999999996
11
76.8134649999999937
21
-116.2110139999999916
0
LINE
8
BLACK
6
CONTINUOUS
10
76.8134649999999937
20
-116.2110139999999916
11
77.0808299999999917
21
-116.3107359999999915
0
LINE
8
BLACK
6
CONTINUOUS
10
77.0808299999999917
20
-116.3107359999999915
11
77.3312820000000016
21
-116.4474929999999944
0
LINE
8
BLACK
6
CONTINUOUS
10
77.3312820000000016
20
-116.4474929999999944
11
77.5597209999999961
21
-116.6185009999999949
0
LINE
8
BLACK
6
CONTINUOUS
10
77.5597209999999961
20
-116.6185009999999949
11
77.7614990000000006
21
-116.8202789999999993
0
LINE
8
BLACK
6
CONTINUOUS
10
77.7614990000000006
20
-116.8202789999999993
11
77.9325070000000011
21
-117.0487179999999938
0
LINE
8
BLACK
6
CONTINUOUS
10
77.9325070000000011
20
-117.0487179999999938
11
78.0692639999999898
21
-117.2991699999999895
0
LINE
8
BLACK
6
CONTINUOUS
10
78.0692639999999898
20
-117.2991699999999895
11
78.1689859999999896
21
-117.5665349999999876
0
LINE
8
BLACK
6
CONTINUOUS
10
78.1689859999999896
20
-117.5665349999999876
11
78.2296429999999958
21
-117.8453699999999884
0
LINE
8
BLACK
6
CONTINUOUS
10
78.2296429999999958
20
-117.8453699999999884
11
78.25
21
-118.1299999999999955
0
LINE
8
BLACK
6
CONTINUOUS
10
78.25
20
-118.1299999999999955
11
78.2296429999999958
21
-118.4146299999999883
0
LINE
8
BLACK
6
CONTINUOUS
10
78.2296429999999958
20
-118.4146299999999883
11
78.1689859999999896
21
-118.6934649999999891
0
LINE
8
BLACK
6
CONTINUOUS
10
78.1689859999999896
20
-118.6934649999999891
11
78.0692639999999898
21
-118.9608300000000014
0
LINE
8
BLACK
6
CONTINUOUS
10
78.0692639999999898
20
-118.9608300000000014
11
77.9325070000000011
21
-119.2112819999999971
0
LINE
8
BLACK
6
CONTINUOUS
10
77.9325070000000011
20
-119.2112819999999971
11
77.7614990000000006
21
-119.4397209999999916
0
LINE
8
BLACK
6
CONTINUOUS
10
77.7614990000000006
20
-119.4397209999999916
11
77.5597209999999961
21
-119.641498999999996
0
LINE
8
BLACK
6
CONTINUOUS
10
77.5597209999999961
20
-119.641498999999996
11
77.3312820000000016
21
-119.8125069999999965
0
LINE
8
BLACK
6
CONTINUOUS
10
77.3312820000000016
20
-119.8125069999999965
11
77.0808299999999917
21
-119.9492639999999994
0
LINE
8
BLACK
6
CONTINUOUS
10
77.0808299999999917
20
-119.9492639999999994
11
76.8134649999999937
21
-120.0489859999999993
0
LINE
8
BLACK
6
CONTINUOUS
10
76.8134649999999937
20
-120.0489859999999993
11
76.5346299999999928
21
-120.1096429999999913
0
LINE
8
BLACK
6
CONTINUOUS
10
76.5346299999999928
20
-120.1096429999999913
11
76.25
21
-120.1299999999999955
0
LINE
8
BLACK
6
CONTINUOUS
10
76.25
20
-120.1299999999999955
11
75.965369999999993
21
-120.1096429999999913
0
LINE
8
BLACK
6
CONTINUOUS
10
75.965369999999993
20
-120.1096429999999913
11
75.6865349999999921
21
-120.0489859999999993
0
LINE
8
BLACK
6
CONTINUOUS
10
75.6865349999999921
20
-120.0489859999999993
11
75.419169999999994
21
-119.9492639999999994
0
LINE
8
BLACK
6
CONTINUOUS
10
75.419169999999994
20
-119.9492639999999994
11
75.1687179999999984
21
-119.8125069999999965
0
LINE
8
BLACK
6
CONTINUOUS
10
75.1687179999999984
20
-119.8125069999999965
11
74.9402789999999897
21
-119.641498999999996
0
LINE
8
BLACK
6
CONTINUOUS
10
74.9402789999999897
20
-119.641498999999996
11
74.7385009999999994
21
-119.4397209999999916
0
LINE
8
BLACK
6
CONTINUOUS
10
74.7385009999999994
20
-119.4397209999999916
11
74.5674929999999989
21
-119.2112819999999971
0
LINE
8
BLACK
6
CONTINUOUS
10
74.5674929999999989
20
-119.2112819999999971
11
74.430735999999996
21
-118.9608300000000014
0
LINE
8
BLACK
6
CONTINUOUS
10
74.430735999999996
20
-118.9608300000000014
11
74.3310139999999961
21
-118.6934649999999891
0
LINE
8
BLACK
6
CONTINUOUS
10
74.3310139999999961
20
-118.6934649999999891
11
74.27035699999999
21
-118.4146299999999883
0
LINE
8
BLACK
6
CONTINUOUS
10
74.27035699999999
20
-118.4146299999999883
11
74.25
21
-118.1299999999999955
0
LINE
8
BLACK
6
CONTINUOUS
10
74.25
20
-118.1299999999999955
11
74.27035699999999
21
-117.8453699999999884
0
LINE
8
BLACK
6
CONTINUOUS
10
74.27035699999999
20
-117.8453699999999884
11
74.3310139999999961
21
-117.5665349999999876
0
LINE
8
BLACK
6
CONTINUOUS
10
74.3310139999999961
20
-117.5665349999999876
11
74.430735999999996
21
-117.2991699999999895
0
LINE
8
BLACK
6
CONTINUOUS
10
74.430735999999996
20
-117.2991699999999895
11
74.5674929999999989
21
-117.0487179999999938
0
LINE
8
BLACK
6
CONTINUOUS
10
74.5674929999999989
20
-117.0487179999999938
11
74.7385009999999994
21
-116.8202789999999993
0
LINE
8
BLACK
6
CONTINUOUS
10
74.7385009999999994
20
-116.8202789999999993
11
74.9402789999999897
21
-116.6185009999999949
0
LINE
8
BLACK
6
CONTINUOUS
10
74.9402789999999897
20
-116.6185009999999949
11
75.1687179999999984
21
-116.4474929999999944
0
LINE
8
BLACK
6
CONTINUOUS
10
75.1687179999999984
20
-116.4474929999999944
11
75.419169999999994
21
-116.3107359999999915
0
LINE
8
BLACK
6
CONTINUOUS
10
75.419169999999994
20
-116.3107359999999915
11
75.6865349999999921
21
-116.2110139999999916
0
LINE
8
BLACK
6
CONTINUOUS
10
75.6865349999999921
20
-116.2110139999999916
11
75.965369999999993
21
-116.1503569999999996
0
LINE
8
BLACK
6
CONTINUOUS
10
75.965369999999993
20
-116.1503569999999996
11
76.25
21
-116.1299999999999955
0
LINE
8
BLACK
6
CONTINUOUS
10
76.25
20
-116.1299999999999955
11
76.5346299999999928
21
-116.1503569999999996
0
LINE
8
BLACK
6
CONTINUOUS
10
152.0346299999999928
20
-116.1503569999999996
11
152.3134649999999795
21
-116.2110139999999916
0
LINE
8
BLACK
6
CONTINUOUS
10
152.3134649999999795
20
-116.2110139999999916
11
152.5808299999999917
21
-116.3107359999999915
0
LINE
8
BLACK
6
CONTINUOUS
10
152.5808299999999917
20
-116.3107359999999915
11
152.8312819999999874
21
-116.4474929999999944
0
LINE
8
BLACK
6
CONTINUOUS
10
152.8312819999999874
20
-116.4474929999999944
11
153.0597209999999961
21
-116.6185009999999949
0
LINE
8
BLACK
6
CONTINUOUS
10
153.0597209999999961
20
-116.6185009999999949
11
153.2614989999999864
21
-116.8202789999999993
0
LINE
8
BLACK
6
CONTINUOUS
10
153.2614989999999864
20
-116.8202789999999993
11
153.4325069999999869
21
-117.0487179999999938
0
LINE
8
BLACK
6
CONTINUOUS
10
153.4325069999999869
20
-117.0487179999999938
11
153.569264000000004
21
-117.2991699999999895
0
LINE
8
BLACK
6
CONTINUOUS
10
153.569264000000004
20
-117.2991699999999895
11
153.6689859999999896
21
-117.5665349999999876
0
LINE
8
BLACK
6
CONTINUOUS
10
153.6689859999999896
20
-117.5665349999999876
11
153.7296429999999816
21
-117.8453699999999884
0
LINE
8
BLACK
6
CONTINUOUS
10
153.7296429999999816
20
-117.8453699999999884
11
153.75
21
-118.1299999999999955
0
LINE
8
BLACK
6
CONTINUOUS
10
153.75
20
-118.1299999999999955
11
153.7296429999999816
21
-118.4146299999999883
0
LINE
8
BLACK
6
CONTINUOUS
10
153.7296429999999816
20
-118.4146299999999883
11
153.6689859999999896
21
-118.6934649999999891
0
LINE
8
BLACK
6
CONTINUOUS
10
153.6689859999999896
20
-118.6934649999999891
11
153.569264000000004
21
-118.9608300000000014
0
LINE
8
BLACK
6
CONTINUOUS
10
153.569264000000004
20
-118.9608300000000014
11
153.4325069999999869
21
-119.2112819999999971
0
LINE
8
BLACK
6
CONTINUOUS
10
153.4325069999999869
20
-119.2112819999999971
11
153.2614989999999864
21
-119.4397209999999916
0
LINE
8
BLACK
6
CONTINUOUS
10
153.2614989999999864
20
-119.4397209999999916
11
153.0597209999999961
21
-119.641498999999996
0
LINE
8
BLACK
6
CONTINUOUS
10
153.0597209999999961
20
-119.641498999999996
11
152.8312819999999874
21
-119.8125069999999965
0
LINE
8
BLACK
6
CONTINUOUS
10
152.8312819999999874
20
-119.8125069999999965
11
152.5808299999999917
21
-119.9492639999999994
0
LINE
8
BLACK
6
CONTINUOUS
10
152.5808299999999917
20
-119.9492639999999994
11
152.3134649999999795
21
-120.0489859999999993
0
LINE
8
BLACK
6
CONTINUOUS
10
152.3134649999999795
20
-120.0489859999999993
11
152.0346299999999928
21
-120.1096429999999913
0
LINE
8
BLACK
6
CONTINUOUS
10
152.0346299999999928
20
-120.1096429999999913
11
151.75
21
-120.1299999999999955
0
LINE
8
BLACK
6
CONTINUOUS
10
151.75
20
-120.1299999999999955
11
151.4653700000000072
21
-120.1096429999999913
0
LINE
8
BLACK
6
CONTINUOUS
10
151.4653700000000072
20
-120.1096429999999913
11
151.1865349999999921
21
-120.0489859999999993
0
LINE
8
BLACK
6
CONTINUOUS
10
151.1865349999999921
20
-120.0489859999999993
11
150.9191699999999798
21
-119.9492639999999994
0
LINE
8
BLACK
6
CONTINUOUS
10
150.9191699999999798
20
-119.9492639999999994
11
150.6687179999999842
21
-119.8125069999999965
0
LINE
8
BLACK
6
CONTINUOUS
10
150.6687179999999842
20
-119.8125069999999965
11
150.4402790000000039
21
-119.641498999999996
0
LINE
8
BLACK
6
CONTINUOUS
10
150.4402790000000039
20
-119.641498999999996
11
150.2385009999999852
21
-119.4397209999999916
0
LINE
8
BLACK
6
CONTINUOUS
10
150.2385009999999852
20
-119.4397209999999916
11
150.0674929999999847
21
-119.2112819999999971
0
LINE
8
BLACK
6
CONTINUOUS
10
150.0674929999999847
20
-119.2112819999999971
11
149.930735999999996
21
-118.9608300000000014
0
LINE
8
BLACK
6
CONTINUOUS
10
149.930735999999996
20
-118.9608300000000014
11
149.8310139999999819
21
-118.6934649999999891
0
LINE
8
BLACK
6
CONTINUOUS
10
149.8310139999999819
20
-118.6934649999999891
11
149.77035699999999
21
-118.4146299999999883
0
LINE
8
BLACK
6
CONTINUOUS
10
149.77035699999999
20
-118.4146299999999883
11
149.75
21
-118.1299999999999955
0
LINE
8
BLACK
6
CONTINUOUS
10
149.75
20
-118.1299999999999955
11
149.77035699999999
21
-117.8453699999999884
0
LINE
8
BLACK
6
CONTINUOUS
10
149.77035699999999
20
-117.8453699999999884
11
149.8310139999999819
21
-117.5665349999999876
0
LINE
8
BLACK
6
CONTINUOUS
10
149.8310139999999819
20
-117.5665349999999876
11
149.930735999999996
21
-117.2991699999999895
0
LINE
8
BLACK
6
CONTINUOUS
10
149.930735999999996
20
-117.2991699999999895
11
150.0674929999999847
21
-117.0487179999999938
0
LINE
8
BLACK
6
CONTINUOUS
10
150.0674929999999847
20
-117.0487179999999938
11
150.2385009999999852
21
-116.8202789999999993
0
LINE
8
BLACK
6
CONTINUOUS
10
150.2385009999999852
20
-116.8202789999999993
11
150.4402790000000039
21
-116.6185009999999949
0
LINE
8
BLACK
6
CONTINUOUS
10
150.4402790000000039
20
-116.6185009999999949
11
150.6687179999999842
21
-116.4474929999999944
0
LINE
8
BLACK
6
CONTINUOUS
10
150.6687179999999842
20
-116.4474929999999944
11
150.9191699999999798
21
-116.3107359999999915
0
LINE
8
BLACK
6
CONTINUOUS
10
150.9191699999999798
20
-116.3107359999999915
11
151.1865349999999921
21
-116.2110139999999916
0
LINE
8
BLACK
6
CONTINUOUS
10
151.1865349999999921
20
-116.2110139999999916
11
151.4653700000000072
21
-116.1503569999999996
0
LINE
8
BLACK
6
CONTINUOUS
10
151.4653700000000072
20
-116.1503569999999996
11
151.75
21
-116.1299999999999955
0
LINE
8
BLACK
6
CONTINUOUS
10
151.75
20
-116.1299999999999955
11
152.0346299999999928
21
-116.1503569999999996
0
LINE
8
BLACK
6
CONTINUOUS
10
76.534089999999992
20
-78.6518370000000004
11
76.8129249999999928
21
-78.7124939999999924
0
LINE
8
BLACK
6
CONTINUOUS
10
76.8129249999999928
20
-78.7124939999999924
11
77.0802899999999909
21
-78.8122159999999923
0
LINE
8
BLACK
6
CONTINUOUS
10
77.0802899999999909
20
-78.8122159999999923
11
77.3307420000000008
21
-78.9489729999999952
0
LINE
8
BLACK
6
CONTINUOUS
10
77.3307420000000008
20
-78.9489729999999952
11
77.5591809999999953
21
-79.1199809999999957
0
LINE
8
BLACK
6
CONTINUOUS
10
77.5591809999999953
20
-79.1199809999999957
11
77.7609589999999997
21
-79.3217590000000001
0
LINE
8
BLACK
6
CONTINUOUS
10
77.7609589999999997
20
-79.3217590000000001
11
77.9319670000000002
21
-79.5501979999999946
0
LINE
8
BLACK
6
CONTINUOUS
10
77.9319670000000002
20
-79.5501979999999946
11
78.0687240000000031
21
-79.8006499999999903
0
LINE
8
BLACK
6
CONTINUOUS
10
78.0687240000000031
20
-79.8006499999999903
11
78.168446000000003
21
-80.0680150000000026
0
LINE
8
BLACK
6
CONTINUOUS
10
78.168446000000003
20
-80.0680150000000026
11
78.2291029999999949
21
-80.3468500000000034
0
LINE
8
BLACK
6
CONTINUOUS
10
78.2291029999999949
20
-80.3468500000000034
11
78.2494599999999991
21
-80.6314799999999963
0
LINE
8
BLACK
6
CONTINUOUS
10
78.2494599999999991
20
-80.6314799999999963
11
78.2291029999999949
21
-80.9161100000000033
0
LINE
8
BLACK
6
CONTINUOUS
10
78.2291029999999949
20
-80.9161100000000033
11
78.168446000000003
21
-81.1949449999999899
0
LINE
8
BLACK
6
CONTINUOUS
10
78.168446000000003
20
-81.1949449999999899
11
78.0687240000000031
21
-81.4623100000000022
0
LINE
8
BLACK
6
CONTINUOUS
10
78.0687240000000031
20
-81.4623100000000022
11
77.9319670000000002
21
-81.7127619999999979
0
LINE
8
BLACK
6
CONTINUOUS
10
77.9319670000000002
20
-81.7127619999999979
11
77.7609589999999997
21
-81.9412009999999924
0
LINE
8
BLACK
6
CONTINUOUS
10
77.7609589999999997
20
-81.9412009999999924
11
77.5591809999999953
21
-82.1429789999999969
0
LINE
8
BLACK
6
CONTINUOUS
10
77.5591809999999953
20
-82.1429789999999969
11
77.3307420000000008
21
-82.3139869999999974
0
LINE
8
BLACK
6
CONTINUOUS
10
77.3307420000000008
20
-82.3139869999999974
11
77.0802899999999909
21
-82.4507440000000003
0
LINE
8
BLACK
6
CONTINUOUS
10
77.0802899999999909
20
-82.4507440000000003
11
76.8129249999999928
21
-82.5504660000000001
0
LINE
8
BLACK
6
CONTINUOUS
10
76.8129249999999928
20
-82.5504660000000001
11
76.534089999999992
21
-82.6111229999999921
0
LINE
8
BLACK
6
CONTINUOUS
10
76.534089999999992
20
-82.6111229999999921
11
76.2494599999999991
21
-82.6314799999999963
0
LINE
8
BLACK
6
CONTINUOUS
10
76.2494599999999991
20
-82.6314799999999963
11
75.9648299999999921
21
-82.6111229999999921
0
LINE
8
BLACK
6
CONTINUOUS
10
75.9648299999999921
20
-82.6111229999999921
11
75.6859949999999913
21
-82.5504660000000001
0
LINE
8
BLACK
6
CONTINUOUS
10
75.6859949999999913
20
-82.5504660000000001
11
75.4186299999999932
21
-82.4507440000000003
0
LINE
8
BLACK
6
CONTINUOUS
10
75.4186299999999932
20
-82.4507440000000003
11
75.1681779999999975
21
-82.3139869999999974
0
LINE
8
BLACK
6
CONTINUOUS
10
75.1681779999999975
20
-82.3139869999999974
11
74.939739000000003
21
-82.1429789999999969
0
LINE
8
BLACK
6
CONTINUOUS
10
74.939739000000003
20
-82.1429789999999969
11
74.7379609999999985
21
-81.9412009999999924
0
LINE
8
BLACK
6
CONTINUOUS
10
74.7379609999999985
20
-81.9412009999999924
11
74.566952999999998
21
-81.7127619999999979
0
LINE
8
BLACK
6
CONTINUOUS
10
74.566952999999998
20
-81.7127619999999979
11
74.4301959999999951
21
-81.4623100000000022
0
LINE
8
BLACK
6
CONTINUOUS
10
74.4301959999999951
20
-81.4623100000000022
11
74.3304739999999953
21
-81.1949449999999899
0
LINE
8
BLACK
6
CONTINUOUS
10
74.3304739999999953
20
-81.1949449999999899
11
74.2698170000000033
21
-80.9161100000000033
0
LINE
8
BLACK
6
CONTINUOUS
10
74.2698170000000033
20
-80.9161100000000033
11
74.2494599999999991
21
-80.6314799999999963
0
LINE
8
BLACK
6
CONTINUOUS
10
74.2494599999999991
20
-80.6314799999999963
11
74.2698170000000033
21
-80.3468500000000034
0
LINE
8
BLACK
6
CONTINUOUS
10
74.2698170000000033
20
-80.3468500000000034
11
74.3304739999999953
21
-80.0680150000000026
0
LINE
8
BLACK
6
CONTINUOUS
10
74.3304739999999953
20
-80.0680150000000026
11
74.4301959999999951
21
-79.8006499999999903
0
LINE
8
BLACK
6
CONTINUOUS
10
74.4301959999999951
20
-79.8006499999999903
11
74.566952999999998
21
-79.5501979999999946
0
LINE
8
BLACK
6
CONTINUOUS
10
74.566952999999998
20
-79.5501979999999946
11
74.7379609999999985
21
-79.3217590000000001
0
LINE
8
BLACK
6
CONTINUOUS
10
74.7379609999999985
20
-79.3217590000000001
11
74.939739000000003
21
-79.1199809999999957
0
LINE
8
BLACK
6
CONTINUOUS
10
74.939739000000003
20
-79.1199809999999957
11
75.1681779999999975
21
-78.9489729999999952
0
LINE
8
BLACK
6
CONTINUOUS
10
75.1681779999999975
20
-78.9489729999999952
11
75.4186299999999932
21
-78.8122159999999923
0
LINE
8
BLACK
6
CONTINUOUS
10
75.4186299999999932
20
-78.8122159999999923
11
75.6859949999999913
21
-78.7124939999999924
0
LINE
8
BLACK
6
CONTINUOUS
10
75.6859949999999913
20
-78.7124939999999924
11
75.9648299999999921
21
-78.6518370000000004
0
LINE
8
BLACK
6
CONTINUOUS
10
75.9648299999999921
20
-78.6518370000000004
11
76.2494599999999991
21
-78.6314799999999963
0
LINE
8
BLACK
6
CONTINUOUS
10
76.2494599999999991
20
-78.6314799999999963
11
76.534089999999992
21
-78.6518370000000004
0
LINE
8
BLACK
6
CONTINUOUS
10
152.0346299999999928
20
-78.6503569999999996
11
152.3134649999999795
21
-78.7110139999999916
0
LINE
8
BLACK
6
CONTINUOUS
10
152.3134649999999795
20
-78.7110139999999916
11
152.5808299999999917
21
-78.8107359999999915
0
LINE
8
BLACK
6
CONTINUOUS
10
152.5808299999999917
20
-78.8107359999999915
11
152.8312819999999874
21
-78.9474929999999944
0
LINE
8
BLACK
6
CONTINUOUS
10
152.8312819999999874
20
-78.9474929999999944
11
153.0597209999999961
21
-79.1185009999999949
0
LINE
8
BLACK
6
CONTINUOUS
10
153.0597209999999961
20
-79.1185009999999949
11
153.2614989999999864
21
-79.3202789999999993
0
LINE
8
BLACK
6
CONTINUOUS
10
153.2614989999999864
20
-79.3202789999999993
11
153.4325069999999869
21
-79.5487179999999938
0
LINE
8
BLACK
6
CONTINUOUS
10
153.4325069999999869
20
-79.5487179999999938
11
153.569264000000004
21
-79.7991699999999895
0
LINE
8
BLACK
6
CONTINUOUS
10
153.569264000000004
20
-79.7991699999999895
11
153.6689859999999896
21
-80.0665350000000018
0
LINE
8
BLACK
6
CONTINUOUS
10
153.6689859999999896
20
-80.0665350000000018
11
153.7296429999999816
21
-80.3453700000000026
0
LINE
8
BLACK
6
CONTINUOUS
10
153.7296429999999816
20
-80.3453700000000026
11
153.75
21
-80.6299999999999955
0
LINE
8
BLACK
6
CONTINUOUS
10
153.75
20
-80.6299999999999955
11
153.7296429999999816
21
-80.9146300000000025
0
LINE
8
BLACK
6
CONTINUOUS
10
153.7296429999999816
20
-80.9146300000000025
11
153.6689859999999896
21
-81.1934650000000033
0
LINE
8
BLACK
6
CONTINUOUS
10
153.6689859999999896
20
-81.1934650000000033
11
153.569264000000004
21
-81.4608300000000014
0
LINE
8
BLACK
6
CONTINUOUS
10
153.569264000000004
20
-81.4608300000000014
11
153.4325069999999869
21
-81.7112819999999971
0
LINE
8
BLACK
6
CONTINUOUS
10
153.4325069999999869
20
-81.7112819999999971
11
153.2614989999999864
21
-81.9397209999999916
0
LINE
8
BLACK
6
CONTINUOUS
10
153.2614989999999864
20
-81.9397209999999916
11
153.0597209999999961
21
-82.141498999999996
0
LINE
8
BLACK
6
CONTINUOUS
10
153.0597209999999961
20
-82.141498999999996
11
152.8312819999999874
21
-82.3125069999999965
0
LINE
8
BLACK
6
CONTINUOUS
10
152.8312819999999874
20
-82.3125069999999965
11
152.5808299999999917
21
-82.4492639999999994
0
LINE
8
BLACK
6
CONTINUOUS
10
152.5808299999999917
20
-82.4492639999999994
11
152.3134649999999795
21
-82.5489859999999993
0
LINE
8
BLACK
6
CONTINUOUS
10
152.3134649999999795
20
-82.5489859999999993
11
152.0346299999999928
21
-82.6096429999999913
0
LINE
8
BLACK
6
CONTINUOUS
10
152.0346299999999928
20
-82.6096429999999913
11
151.75
21
-82.6299999999999955
0
LINE
8
BLACK
6
CONTINUOUS
10
151.75
20
-82.6299999999999955
11
151.4653700000000072
21
-82.6096429999999913
0
LINE
8
BLACK
6
CONTINUOUS
10
151.4653700000000072
20
-82.6096429999999913
11
151.1865349999999921
21
-82.5489859999999993
0
LINE
8
BLACK
6
CONTINUOUS
10
151.1865349999999921
20
-82.5489859999999993
11
150.9191699999999798
21
-82.4492639999999994
0
LINE
8
BLACK
6
CONTINUOUS
10
150.9191699999999798
20
-82.4492639999999994
11
150.6687179999999842
21
-82.3125069999999965
0
LINE
8
BLACK
6
CONTINUOUS
10
150.6687179999999842
20
-82.3125069999999965
11
150.4402790000000039
21
-82.141498999999996
0
LINE
8
BLACK
6
CONTINUOUS
10
150.4402790000000039
20
-82.141498999999996
11
150.2385009999999852
21
-81.9397209999999916
0
LINE
8
BLACK
6
CONTINUOUS
10
150.2385009999999852
20
-81.9397209999999916
11
150.0674929999999847
21
-81.7112819999999971
0
LINE
8
BLACK
6
CONTINUOUS
10
150.0674929999999847
20
-81.7112819999999971
11
149.930735999999996
21
-81.4608300000000014
0
LINE
8
BLACK
6
CONTINUOUS
10
149.930735999999996
20
-81.4608300000000014
11
149.8310139999999819
21
-81.1934650000000033
0
LINE
8
BLACK
6
CONTINUOUS
10
149.8310139999999819
20
-81.1934650000000033
11
149.77035699999999
21
-80.9146300000000025
0
LINE
8
BLACK
6
CONTINUOUS
10
149.77035699999999
20
-80.9146300000000025
11
149.75
21
-80.6299999999999955
0
LINE
8
BLACK
6
CONTINUOUS
10
149.75
20
-80.6299999999999955
11
149.77035699999999
21
-80.3453700000000026
0
LINE
8
BLACK
6
CONTINUOUS
10
149.77035699999999
20
-80.3453700000000026
11
149.8310139999999819
21
-80.0665350000000018
0
LINE
8
BLACK
6
CONTINUOUS
10
149.8310139999999819
20
-80.0665350000000018
11
149.930735999999996
21
-79.7991699999999895
0
LINE
8
BLACK
6
CONTINUOUS
10
149.930735999999996
20
-79.7991699999999895
11
150.0674929999999847
21
-79.5487179999999938
0
LINE
8
BLACK
6
CONTINUOUS
10
150.0674929999999847
20
-79.5487179999999938
11
150.2385009999999852
21
-79.3202789999999993
0
LINE
8
BLACK
6
CONTINUOUS
10
150.2385009999999852
20
-79.3202789999999993
11
150.4402790000000039
21
-79.1185009999999949
0
LINE
8
BLACK
6
CONTINUOUS
10
150.4402790000000039
20
-79.1185009999999949
11
150.6687179999999842
21
-78.9474929999999944
0
LINE
8
BLACK
6
CONTINUOUS
10
150.6687179999999842
20
-78.9474929999999944
11
150.9191699999999798
21
-78.8107359999999915
0
LINE
8
BLACK
6
CONTINUOUS
10
150.9191699999999798
20
-78.8107359999999915
11
151.1865349999999921
21
-78.7110139999999916
0
LINE
8
BLACK
6
CONTINUOUS
10
151.1865349999999921
20
-78.7110139999999916
11
151.4653700000000072
21
-78.6503569999999996
0
LINE
8
BLACK
6
CONTINUOUS
10
151.4653700000000072
20
-78.6503569999999996
11
151.75
21
-78.6299999999999955
0
LINE
8
BLACK
6
CONTINUOUS
10
151.75
20
-78.6299999999999955
11
152.0346299999999928
21
-78.6503569999999996
0
LINE
8
BLACK
6
CONTINUOUS
10
111.8276879999999949
20
-79.1773799999999994
11
112.06200299999999
21
-79.2578199999999953
0
LINE
8
BLACK
6
CONTINUOUS
10
112.06200299999999
20
-79.2578199999999953
11
112.2798820000000006
21
-79.3757299999999901
0
LINE
8
BLACK
6
CONTINUOUS
10
112.2798820000000006
20
-79.3757299999999901
11
112.4753819999999962
21
-79.5278940000000034
0
LINE
8
BLACK
6
CONTINUOUS
10
112.4753819999999962
20
-79.5278940000000034
11
112.6431709999999953
21
-79.7101609999999994
0
LINE
8
BLACK
6
CONTINUOUS
10
112.6431709999999953
20
-79.7101609999999994
11
112.7786709999999886
21
-79.9175589999999971
0
LINE
8
BLACK
6
CONTINUOUS
10
112.7786709999999886
20
-79.9175589999999971
11
112.8781859999999995
21
-80.1444309999999973
0
LINE
8
BLACK
6
CONTINUOUS
10
112.8781859999999995
20
-80.1444309999999973
11
112.9390019999999879
21
-80.3845879999999937
0
LINE
8
BLACK
6
CONTINUOUS
10
112.9390019999999879
20
-80.3845879999999937
11
112.9594599999999929
21
-80.6314799999999963
0
LINE
8
BLACK
6
CONTINUOUS
10
112.9594599999999929
20
-80.6314799999999963
11
112.9390019999999879
21
-80.8783719999999988
0
LINE
8
BLACK
6
CONTINUOUS
10
112.9390019999999879
20
-80.8783719999999988
11
112.8781859999999995
21
-81.1185289999999952
0
LINE
8
BLACK
6
CONTINUOUS
10
112.8781859999999995
20
-81.1185289999999952
11
112.7786709999999886
21
-81.3454009999999954
0
LINE
8
BLACK
6
CONTINUOUS
10
112.7786709999999886
20
-81.3454009999999954
11
112.6431709999999953
21
-81.5527989999999932
0
LINE
8
BLACK
6
CONTINUOUS
10
112.6431709999999953
20
-81.5527989999999932
11
112.4753819999999962
21
-81.7350660000000033
0
LINE
8
BLACK
6
CONTINUOUS
10
112.4753819999999962
20
-81.7350660000000033
11
112.2798820000000006
21
-81.8872300000000024
0
LINE
8
BLACK
6
CONTINUOUS
10
112.2798820000000006
20
-81.8872300000000024
11
112.06200299999999
21
-82.0051399999999973
0
LINE
8
BLACK
6
CONTINUOUS
10
112.06200299999999
20
-82.0051399999999973
11
111.8276879999999949
21
-82.0855799999999931
0
LINE
8
BLACK
6
CONTINUOUS
10
111.8276879999999949
20
-82.0855799999999931
11
111.583328999999992
21
-82.1263569999999987
0
LINE
8
BLACK
6
CONTINUOUS
10
111.583328999999992
20
-82.1263569999999987
11
111.3355909999999938
21
-82.1263569999999987
0
LINE
8
BLACK
6
CONTINUOUS
10
111.3355909999999938
20
-82.1263569999999987
11
111.0912319999999909
21
-82.0855799999999931
0
LINE
8
BLACK
6
CONTINUOUS
10
111.0912319999999909
20
-82.0855799999999931
11
110.8569169999999957
21
-82.0051399999999973
0
LINE
8
BLACK
6
CONTINUOUS
10
110.8569169999999957
20
-82.0051399999999973
11
110.6390379999999993
21
-81.8872300000000024
0
LINE
8
BLACK
6
CONTINUOUS
10
110.6390379999999993
20
-81.8872300000000024
11
110.4435379999999896
21
-81.7350660000000033
0
LINE
8
BLACK
6
CONTINUOUS
10
110.4435379999999896
20
-81.7350660000000033
11
110.2757489999999905
21
-81.5527989999999932
0
LINE
8
BLACK
6
CONTINUOUS
10
110.2757489999999905
20
-81.5527989999999932
11
110.1402489999999972
21
-81.3454009999999954
0
LINE
8
BLACK
6
CONTINUOUS
10
110.1402489999999972
20
-81.3454009999999954
11
110.0407340000000005
21
-81.1185289999999952
0
LINE
8
BLACK
6
CONTINUOUS
10
110.0407340000000005
20
-81.1185289999999952
11
109.9799179999999978
21
-80.8783719999999988
0
LINE
8
BLACK
6
CONTINUOUS
10
109.9799179999999978
20
-80.8783719999999988
11
109.9594599999999929
21
-80.6314799999999963
0
LINE
8
BLACK
6
CONTINUOUS
10
109.9594599999999929
20
-80.6314799999999963
11
109.9799179999999978
21
-80.3845879999999937
0
LINE
8
BLACK
6
CONTINUOUS
10
109.9799179999999978
20
-80.3845879999999937
11
110.0407340000000005
21
-80.1444309999999973
0
LINE
8
BLACK
6
CONTINUOUS
10
110.0407340000000005
20
-80.1444309999999973
11
110.1402489999999972
21
-79.9175589999999971
0
LINE
8
BLACK
6
CONTINUOUS
10
110.1402489999999972
20
-79.9175589999999971
11
110.2757489999999905
21
-79.7101609999999994
0
LINE
8
BLACK
6
CONTINUOUS
10
110.2757489999999905
20
-79.7101609999999994
11
110.4435379999999896
21
-79.5278940000000034
0
LINE
8
BLACK
6
CONTINUOUS
10
110.4435379999999896
20
-79.5278940000000034
11
110.6390379999999993
21
-79.3757299999999901
0
LINE
8
BLACK
6
CONTINUOUS
10
110.6390379999999993
20
-79.3757299999999901
11
110.8569169999999957
21
-79.2578199999999953
0
LINE
8
BLACK
6
CONTINUOUS
10
110.8569169999999957
20
-79.2578199999999953
11
111.0912319999999909
21
-79.1773799999999994
0
LINE
8
BLACK
6
CONTINUOUS
10
111.0912319999999909
20
-79.1773799999999994
11
111.3355909999999938
21
-79.1366029999999938
0
LINE
8
BLACK
6
CONTINUOUS
10
111.3355909999999938
20
-79.1366029999999938
11
111.583328999999992
21
-79.1366029999999938
0
LINE
8
BLACK
6
CONTINUOUS
10
111.583328999999992
20
-79.1366029999999938
11
111.8276879999999949
21
-79.1773799999999994
0
LINE
8
BLACK
6
CONTINUOUS
10
116.9076879999999932
20
-79.1773799999999994
11
117.1420029999999883
21
-79.2578199999999953
0
LINE
8
BLACK
6
CONTINUOUS
10
117.1420029999999883
20
-79.2578199999999953
11
117.3598819999999989
21
-79.3757299999999901
0
LINE
8
BLACK
6
CONTINUOUS
10
117.3598819999999989
20
-79.3757299999999901
11
117.5553819999999945
21
-79.5278940000000034
0
LINE
8
BLACK
6
CONTINUOUS
10
117.5553819999999945
20
-79.5278940000000034
11
117.7231709999999936
21
-79.7101609999999994
0
LINE
8
BLACK
6
CONTINUOUS
10
117.7231709999999936
20
-79.7101609999999994
11
117.8586710000000011
21
-79.9175589999999971
0
LINE
8
BLACK
6
CONTINUOUS
10
117.8586710000000011
20
-79.9175589999999971
11
117.9581859999999978
21
-80.1444309999999973
0
LINE
8
BLACK
6
CONTINUOUS
10
117.9581859999999978
20
-80.1444309999999973
11
118.0190020000000004
21
-80.3845879999999937
0
LINE
8
BLACK
6
CONTINUOUS
10
118.0190020000000004
20
-80.3845879999999937
11
118.0394599999999912
21
-80.6314799999999963
0
LINE
8
BLACK
6
CONTINUOUS
10
118.0394599999999912
20
-80.6314799999999963
11
118.0190020000000004
21
-80.8783719999999988
0
LINE
8
BLACK
6
CONTINUOUS
10
118.0190020000000004
20
-80.8783719999999988
11
117.9581859999999978
21
-81.1185289999999952
0
LINE
8
BLACK
6
CONTINUOUS
10
117.9581859999999978
20
-81.1185289999999952
11
117.8586710000000011
21
-81.3454009999999954
0
LINE
8
BLACK
6
CONTINUOUS
10
117.8586710000000011
20
-81.3454009999999954
11
117.7231709999999936
21
-81.5527989999999932
0
LINE
8
BLACK
6
CONTINUOUS
10
117.7231709999999936
20
-81.5527989999999932
11
117.5553819999999945
21
-81.7350660000000033
0
LINE
8
BLACK
6
CONTINUOUS
10
117.5553819999999945
20
-81.7350660000000033
11
117.3598819999999989
21
-81.8872300000000024
0
LINE
8
BLACK
6
CONTINUOUS
10
117.3598819999999989
20
-81.8872300000000024
11
117.1420029999999883
21
-82.0051399999999973
0
LINE
8
BLACK
6
CONTINUOUS
10
117.1420029999999883
20
-82.0051399999999973
11
116.9076879999999932
21
-82.0855799999999931
0
LINE
8
BLACK
6
CONTINUOUS
10
116.9076879999999932
20
-82.0855799999999931
11
116.6633289999999903
21
-82.1263569999999987
0
LINE
8
BLACK
6
CONTINUOUS
10
116.6633289999999903
20
-82.1263569999999987
11
116.4155909999999921
21
-82.1263569999999987
0
LINE
8
BLACK
6
CONTINUOUS
10
116.4155909999999921
20
-82.1263569999999987
11
116.1712319999999892
21
-82.0855799999999931
0
LINE
8
BLACK
6
CONTINUOUS
10
116.1712319999999892
20
-82.0855799999999931
11
115.936916999999994
21
-82.0051399999999973
0
LINE
8
BLACK
6
CONTINUOUS
10
115.936916999999994
20
-82.0051399999999973
11
115.7190379999999976
21
-81.8872300000000024
0
LINE
8
BLACK
6
CONTINUOUS
10
115.7190379999999976
20
-81.8872300000000024
11
115.5235379999999878
21
-81.7350660000000033
0
LINE
8
BLACK
6
CONTINUOUS
10
115.5235379999999878
20
-81.7350660000000033
11
115.3557489999999888
21
-81.5527989999999932
0
LINE
8
BLACK
6
CONTINUOUS
10
115.3557489999999888
20
-81.5527989999999932
11
115.2202489999999955
21
-81.3454009999999954
0
LINE
8
BLACK
6
CONTINUOUS
10
115.2202489999999955
20
-81.3454009999999954
11
115.1207339999999988
21
-81.1185289999999952
0
LINE
8
BLACK
6
CONTINUOUS
10
115.1207339999999988
20
-81.1185289999999952
11
115.0599179999999961
21
-80.8783719999999988
0
LINE
8
BLACK
6
CONTINUOUS
10
115.0599179999999961
20
-80.8783719999999988
11
115.0394599999999912
21
-80.6314799999999963
0
LINE
8
BLACK
6
CONTINUOUS
10
115.0394599999999912
20
-80.6314799999999963
11
115.0599179999999961
21
-80.3845879999999937
0
LINE
8
BLACK
6
CONTINUOUS
10
115.0599179999999961
20
-80.3845879999999937
11
115.1207339999999988
21
-80.1444309999999973
0
LINE
8
BLACK
6
CONTINUOUS
10
115.1207339999999988
20
-80.1444309999999973
11
115.2202489999999955
21
-79.9175589999999971
0
LINE
8
BLACK
6
CONTINUOUS
10
115.2202489999999955
20
-79.9175589999999971
11
115.3557489999999888
21
-79.7101609999999994
0
LINE
8
BLACK
6
CONTINUOUS
10
115.3557489999999888
20
-79.7101609999999994
11
115.5235379999999878
21
-79.5278940000000034
0
LINE
8
BLACK
6
CONTINUOUS
10
115.5235379999999878
20
-79.5278940000000034
11
115.7190379999999976
21
-79.3757299999999901
0
LINE
8
BLACK
6
CONTINUOUS
10
115.7190379999999976
20
-79.3757299999999901
11
115.936916999999994
21
-79.2578199999999953
0
LINE
8
BLACK
6
CONTINUOUS
10
115.936916999999994
20
-79.2578199999999953
11
116.1712319999999892
21
-79.1773799999999994
0
LINE
8
BLACK
6
CONTINUOUS
10
116.1712319999999892
20
-79.1773799999999994
11
116.4155909999999921
21
-79.1366029999999938
0
LINE
8
BLACK
6
CONTINUOUS
10
116.4155909999999921
20
-79.1366029999999938
11
116.6633289999999903
21
-79.1366029999999938
0
LINE
8
BLACK
6
CONTINUOUS
10
116.6633289999999903
20
-79.1366029999999938
11
116.9076879999999932
21
-79.1773799999999994
  0
ENDSEC
  0
EOF
