    VersionID HFSS2019
    NumberFrequencies 1
    Frequency 2097662446.861715
    Success 1
    SolverName Nondomain
    IterativeSolver 0
    DistributedSolver 0
    Precision 1
    NumTasks 1
    NumTets 100130
    BasisOrder 0
    TREECOTREE 0
    MemoryMasterMB 278.000000
    MemoryTotalMB 664.000000
    NumMeshStatisticsTets 100130
    MemoryForSMatrixOnlyMB 379.191406
    LowFrequencyCutoff 3414070.806083
    MemoryDistributedTotalMB -1.000000
    MemoryDistributedSMatrixOnlyMB -1.000000
    MemoryTotalAccurate 0
    MemorySMatrixOnlyAccurate 1
    MemoryDistributedTotalAccurate 0
    MemoryDistributedSMatrixOnlyAccurate 0
    SingularMatrix 0
    NumCores 1
    NumKrylovVectors -1
    MatrixSize 131517
    TotalModes 2
