    VersionID HFSS2019
    NumberFrequencies 1
    Frequency 2189037384.346085
    Success 1
    SolverName Nondomain
    IterativeSolver 0
    DistributedSolver 0
    Precision 1
    NumTasks 1
    NumTets 116088
    BasisOrder 0
    TREECOTREE 0
    MemoryMasterMB 299.000000
    MemoryTotalMB 789.000000
    NumMeshStatisticsTets 116088
    MemoryForSMatrixOnlyMB 432.621094
    LowFrequencyCutoff 3414070.806083
    MemoryDistributedTotalMB -1.000000
    MemoryDistributedSMatrixOnlyMB -1.000000
    MemoryTotalAccurate 0
    MemorySMatrixOnlyAccurate 1
    MemoryDistributedTotalAccurate 0
    MemoryDistributedSMatrixOnlyAccurate 0
    SingularMatrix 0
    NumCores 2
    NumKrylovVectors -1
    MatrixSize 150761
    TotalModes 2
