    VersionID HFSS2019
    NumberFrequencies 1
    Frequency 2098412384.346086
    Success 1
    SolverName Nondomain
    IterativeSolver 0
    DistributedSolver 0
    Precision 1
    NumTasks 1
    NumTets 117672
    BasisOrder 0
    TREECOTREE 0
    MemoryMasterMB 300.000000
    MemoryTotalMB 793.000000
    NumMeshStatisticsTets 117672
    MemoryForSMatrixOnlyMB 430.988281
    LowFrequencyCutoff 3414070.806083
    MemoryDistributedTotalMB -1.000000
    MemoryDistributedSMatrixOnlyMB -1.000000
    MemoryTotalAccurate 0
    MemorySMatrixOnlyAccurate 1
    MemoryDistributedTotalAccurate 0
    MemoryDistributedSMatrixOnlyAccurate 0
    SingularMatrix 0
    NumCores 2
    NumKrylovVectors -1
    MatrixSize 152718
    TotalModes 2
