    VersionID HFSS2019
    NumberFrequencies 1
    Frequency 10000000.000000
    Success 1
    SolverName Nondomain
    IterativeSolver 0
    DistributedSolver 0
    Precision 1
    NumTasks 1
    NumTets 115183
    BasisOrder 0
    TREECOTREE 0
    MemoryMasterMB 309.000000
    MemoryTotalMB 774.000000
    NumMeshStatisticsTets 115183
    MemoryForSMatrixOnlyMB 414.097656
    LowFrequencyCutoff 3595822.431428
    MemoryDistributedTotalMB -1.000000
    MemoryDistributedSMatrixOnlyMB -1.000000
    MemoryTotalAccurate 0
    MemorySMatrixOnlyAccurate 1
    MemoryDistributedTotalAccurate 0
    MemoryDistributedSMatrixOnlyAccurate 0
    SingularMatrix 0
    NumCores 1
    NumKrylovVectors -1
    MatrixSize 149704
    TotalModes 2
