    VersionID HFSS2019
    NumberFrequencies 1
    Frequency 1562500.000000
    Success 1
    SolverName Nondomain
    IterativeSolver 0
    DistributedSolver 0
    Precision 1
    NumTasks 1
    NumTets 116088
    BasisOrder 0
    TREECOTREE 1
    MemoryMasterMB 311.000000
    MemoryTotalMB 961.347656
    NumMeshStatisticsTets 116088
    MemoryForSMatrixOnlyMB 454.283863
    LowFrequencyCutoff 3414070.806083
    MemoryDistributedTotalMB -1.000000
    MemoryDistributedSMatrixOnlyMB -1.000000
    MemoryTotalAccurate 1
    MemorySMatrixOnlyAccurate 0
    MemoryDistributedTotalAccurate 0
    MemoryDistributedSMatrixOnlyAccurate 0
    SingularMatrix 0
    NumCores 1
    NumKrylovVectors -1
    MatrixSize 150761
    TotalModes 2
