    VersionID HFSS2019
    NumberFrequencies 1
    Frequency 2590159164.791195
    Success 1
    SolverName Nondomain
    IterativeSolver 0
    DistributedSolver 0
    Precision 1
    NumTasks 1
    NumTets 113912
    BasisOrder 0
    TREECOTREE 0
    MemoryMasterMB 305.000000
    MemoryTotalMB 758.000000
    NumMeshStatisticsTets 113912
    MemoryForSMatrixOnlyMB 408.062500
    LowFrequencyCutoff 3414070.806083
    MemoryDistributedTotalMB -1.000000
    MemoryDistributedSMatrixOnlyMB -1.000000
    MemoryTotalAccurate 0
    MemorySMatrixOnlyAccurate 1
    MemoryDistributedTotalAccurate 0
    MemoryDistributedSMatrixOnlyAccurate 0
    SingularMatrix 0
    NumCores 1
    NumKrylovVectors -1
    MatrixSize 148169
    TotalModes 2
