    VersionID HFSS2019
    NumberFrequencies 1
    Frequency 1368750000.000000
    Success 1
    SolverName Nondomain
    IterativeSolver 0
    DistributedSolver 0
    Precision 1
    NumTasks 1
    NumTets 115183
    BasisOrder 0
    TREECOTREE 0
    MemoryMasterMB 286.000000
    MemoryTotalMB 796.000000
    NumMeshStatisticsTets 115183
    MemoryForSMatrixOnlyMB 428.019531
    LowFrequencyCutoff 3595822.431428
    MemoryDistributedTotalMB -1.000000
    MemoryDistributedSMatrixOnlyMB -1.000000
    MemoryTotalAccurate 0
    MemorySMatrixOnlyAccurate 1
    MemoryDistributedTotalAccurate 0
    MemoryDistributedSMatrixOnlyAccurate 0
    SingularMatrix 0
    NumCores 4
    NumKrylovVectors -1
    MatrixSize 149704
    TotalModes 2
