    VersionID HFSS2019
    NumberFrequencies 1
    Frequency 88750000.000000
    Success 1
    SolverName Nondomain
    IterativeSolver 0
    DistributedSolver 0
    Precision 1
    NumTasks 1
    NumTets 116088
    BasisOrder 0
    TREECOTREE 0
    MemoryMasterMB 307.000000
    MemoryTotalMB 791.000000
    NumMeshStatisticsTets 116088
    MemoryForSMatrixOnlyMB 424.070313
    LowFrequencyCutoff 3414070.806083
    MemoryDistributedTotalMB -1.000000
    MemoryDistributedSMatrixOnlyMB -1.000000
    MemoryTotalAccurate 0
    MemorySMatrixOnlyAccurate 1
    MemoryDistributedTotalAccurate 0
    MemoryDistributedSMatrixOnlyAccurate 0
    SingularMatrix 0
    NumCores 1
    NumKrylovVectors -1
    MatrixSize 150761
    TotalModes 2
