    VersionID HFSS2019
    NumberFrequencies 1
    Frequency 2532391316.579145
    Success 1
    SolverName Nondomain
    IterativeSolver 0
    DistributedSolver 0
    Precision 1
    NumTasks 1
    NumTets 100040
    BasisOrder 0
    TREECOTREE 0
    MemoryMasterMB 270.000000
    MemoryTotalMB 675.000000
    NumMeshStatisticsTets 100040
    MemoryForSMatrixOnlyMB 377.203125
    LowFrequencyCutoff 3423725.575791
    MemoryDistributedTotalMB -1.000000
    MemoryDistributedSMatrixOnlyMB -1.000000
    MemoryTotalAccurate 0
    MemorySMatrixOnlyAccurate 1
    MemoryDistributedTotalAccurate 0
    MemoryDistributedSMatrixOnlyAccurate 0
    SingularMatrix 0
    NumCores 2
    NumKrylovVectors -1
    MatrixSize 131428
    TotalModes 2
