    VersionID HFSS2019
    NumberFrequencies 1
    Frequency 2583026260.471372
    Success 1
    SolverName Nondomain
    IterativeSolver 0
    DistributedSolver 0
    Precision 1
    NumTasks 1
    NumTets 100138
    BasisOrder 0
    TREECOTREE 0
    MemoryMasterMB 280.000000
    MemoryTotalMB 675.000000
    NumMeshStatisticsTets 100138
    MemoryForSMatrixOnlyMB 380.417969
    LowFrequencyCutoff 3414070.806083
    MemoryDistributedTotalMB -1.000000
    MemoryDistributedSMatrixOnlyMB -1.000000
    MemoryTotalAccurate 0
    MemorySMatrixOnlyAccurate 1
    MemoryDistributedTotalAccurate 0
    MemoryDistributedSMatrixOnlyAccurate 0
    SingularMatrix 0
    NumCores 1
    NumKrylovVectors -1
    MatrixSize 131516
    TotalModes 2
