    VersionID HFSS2019
    NumberFrequencies 1
    Frequency 2102430935.858968
    Success 1
    SolverName Nondomain
    IterativeSolver 0
    DistributedSolver 0
    Precision 1
    NumTasks 1
    NumTets 100020
    BasisOrder 0
    TREECOTREE 0
    MemoryMasterMB 258.000000
    MemoryTotalMB 686.000000
    NumMeshStatisticsTets 100020
    MemoryForSMatrixOnlyMB 380.519531
    LowFrequencyCutoff 3423725.575791
    MemoryDistributedTotalMB -1.000000
    MemoryDistributedSMatrixOnlyMB -1.000000
    MemoryTotalAccurate 0
    MemorySMatrixOnlyAccurate 1
    MemoryDistributedTotalAccurate 0
    MemoryDistributedSMatrixOnlyAccurate 0
    SingularMatrix 0
    NumCores 4
    NumKrylovVectors -1
    MatrixSize 131435
    TotalModes 2
