M48
; DRILL file {KiCad (5.1.10)-1} date 08/23/21 10:07:07
; FORMAT={-:-/ absolute / metric / decimal}
; #@! TF.CreationDate,2021-08-23T10:07:07+02:00
; #@! TF.GenerationSoftware,Kicad,Pcbnew,(5.1.10)-1
; #@! TF.FileFunction,Plated,1,4,PTH
FMAT,2
METRIC
T1C0.200
T2C0.400
T3C1.200
T4C2.650
%
G90
G05
T1
X114.099Y-93.231
T2
X75.499Y-83.381
X75.499Y-84.131
X75.499Y-84.881
X75.499Y-85.631
X75.499Y-86.381
X75.499Y-87.131
X75.499Y-87.881
X75.499Y-88.631
X75.499Y-89.381
X75.499Y-90.131
X75.499Y-90.881
X75.499Y-91.631
X75.499Y-92.381
X75.499Y-93.131
X75.499Y-93.881
X75.499Y-94.631
X75.499Y-95.381
X75.499Y-96.131
X75.499Y-96.881
X75.499Y-97.631
X75.499Y-98.381
X75.499Y-99.131
X75.499Y-99.881
X75.499Y-100.631
X75.499Y-101.381
X75.499Y-102.131
X75.499Y-102.881
X75.499Y-103.631
X75.499Y-104.381
X75.499Y-105.131
X75.499Y-105.881
X75.499Y-106.631
X75.499Y-107.381
X75.499Y-108.131
X75.499Y-108.881
X75.499Y-109.631
X75.499Y-110.381
X75.499Y-111.131
X75.499Y-111.881
X75.499Y-112.631
X75.499Y-113.381
X75.499Y-114.131
X75.499Y-114.881
X75.499Y-115.631
X76.249Y-83.381
X76.249Y-84.131
X76.249Y-84.881
X76.249Y-85.631
X76.249Y-86.381
X76.249Y-87.131
X76.249Y-87.881
X76.249Y-88.631
X76.249Y-89.381
X76.249Y-90.131
X76.249Y-90.881
X76.249Y-91.631
X76.249Y-92.381
X76.249Y-93.131
X76.249Y-93.881
X76.249Y-94.631
X76.249Y-95.381
X76.249Y-96.131
X76.249Y-96.881
X76.249Y-97.631
X76.249Y-98.381
X76.249Y-99.131
X76.249Y-99.881
X76.249Y-100.631
X76.249Y-101.381
X76.249Y-102.131
X76.249Y-102.881
X76.249Y-103.631
X76.249Y-104.381
X76.249Y-105.131
X76.249Y-105.881
X76.249Y-106.631
X76.249Y-107.381
X76.249Y-108.131
X76.249Y-108.881
X76.249Y-109.631
X76.249Y-110.381
X76.249Y-111.131
X76.249Y-111.881
X76.249Y-112.631
X76.249Y-113.381
X76.249Y-114.131
X76.249Y-114.881
X76.249Y-115.631
X76.999Y-83.381
X76.999Y-84.131
X76.999Y-84.881
X76.999Y-85.631
X76.999Y-86.381
X76.999Y-87.131
X76.999Y-87.881
X76.999Y-88.631
X76.999Y-89.381
X76.999Y-90.131
X76.999Y-90.881
X76.999Y-91.631
X76.999Y-92.381
X76.999Y-93.131
X76.999Y-93.881
X76.999Y-94.631
X76.999Y-95.381
X76.999Y-96.131
X76.999Y-96.881
X76.999Y-97.631
X76.999Y-98.381
X76.999Y-99.131
X76.999Y-99.881
X76.999Y-100.631
X76.999Y-101.381
X76.999Y-102.131
X76.999Y-102.881
X76.999Y-103.631
X76.999Y-104.381
X76.999Y-105.131
X76.999Y-105.881
X76.999Y-106.631
X76.999Y-107.381
X76.999Y-108.131
X76.999Y-108.881
X76.999Y-109.631
X76.999Y-110.381
X76.999Y-111.131
X76.999Y-111.881
X76.999Y-112.631
X76.999Y-113.381
X76.999Y-114.131
X76.999Y-114.881
X76.999Y-115.631
X78.124Y-116.256
X78.624Y-115.756
X79.124Y-115.256
X79.624Y-114.756
X80.124Y-114.256
X81.499Y-113.381
X81.499Y-114.131
X81.499Y-114.881
X82.249Y-113.381
X82.249Y-114.131
X82.249Y-114.881
X82.999Y-113.381
X82.999Y-114.131
X82.999Y-114.881
X83.749Y-113.381
X83.749Y-114.131
X83.749Y-114.881
X84.499Y-113.381
X84.499Y-114.131
X84.499Y-114.881
X85.249Y-113.381
X85.249Y-114.131
X85.249Y-114.881
X85.999Y-113.381
X85.999Y-114.131
X85.999Y-114.881
X86.749Y-113.381
X86.749Y-114.131
X86.749Y-114.881
X87.499Y-113.381
X87.499Y-114.131
X87.499Y-114.881
X88.249Y-113.381
X88.249Y-114.131
X88.249Y-114.881
X88.999Y-113.381
X88.999Y-114.131
X88.999Y-114.881
X89.749Y-113.381
X89.749Y-114.131
X89.749Y-114.881
X90.499Y-113.381
X90.499Y-114.131
X90.499Y-114.881
X91.249Y-113.381
X91.249Y-114.131
X91.249Y-114.881
X91.999Y-113.381
X91.999Y-114.131
X91.999Y-114.881
X92.749Y-113.381
X92.749Y-114.131
X92.749Y-114.881
X93.499Y-113.381
X93.499Y-114.131
X93.499Y-114.881
X94.249Y-113.381
X94.249Y-114.131
X94.249Y-114.881
X94.999Y-113.381
X94.999Y-114.131
X94.999Y-114.881
X95.749Y-113.381
X95.749Y-114.131
X95.749Y-114.881
X96.499Y-113.381
X96.499Y-114.131
X96.499Y-114.881
X97.249Y-113.381
X97.249Y-114.131
X97.249Y-114.881
X97.999Y-113.381
X97.999Y-114.131
X97.999Y-114.881
X98.749Y-113.381
X98.749Y-114.131
X98.749Y-114.881
X99.499Y-113.381
X99.499Y-114.131
X99.499Y-114.881
X100.249Y-113.381
X100.249Y-114.131
X100.249Y-114.881
X100.999Y-113.381
X100.999Y-114.131
X100.999Y-114.881
X101.749Y-113.381
X101.749Y-114.131
X101.749Y-114.881
X102.499Y-113.381
X102.499Y-114.131
X102.499Y-114.881
X103.249Y-113.381
X103.249Y-114.131
X103.249Y-114.881
X103.999Y-113.381
X103.999Y-114.131
X103.999Y-114.881
X104.749Y-113.381
X104.749Y-114.131
X104.749Y-114.881
X105.499Y-113.381
X105.499Y-114.131
X105.499Y-114.881
X106.249Y-113.381
X106.249Y-114.131
X106.249Y-114.881
X106.999Y-113.381
X106.999Y-114.131
X106.999Y-114.881
X107.749Y-113.381
X107.749Y-114.131
X107.749Y-114.881
X108.499Y-113.381
X108.499Y-114.131
X108.499Y-114.881
X109.249Y-113.381
X109.249Y-114.131
X109.249Y-114.881
X109.999Y-113.381
X109.999Y-114.131
X109.999Y-114.881
X110.749Y-113.381
X110.749Y-114.131
X110.749Y-114.881
X111.499Y-113.381
X111.499Y-114.131
X111.499Y-114.881
X112.249Y-113.381
X112.249Y-114.131
X112.249Y-114.881
X112.999Y-113.381
X112.999Y-114.131
X112.999Y-114.881
X113.749Y-113.381
X113.749Y-114.131
X113.749Y-114.881
X114.499Y-113.381
X114.499Y-114.131
X114.499Y-114.881
X115.249Y-113.381
X115.249Y-114.131
X115.249Y-114.881
X115.999Y-113.381
X115.999Y-114.131
X115.999Y-114.881
X116.749Y-113.381
X116.749Y-114.131
X116.749Y-114.881
X117.499Y-113.381
X117.499Y-114.131
X117.499Y-114.881
X118.249Y-113.381
X118.249Y-114.131
X118.249Y-114.881
X118.999Y-113.381
X118.999Y-114.131
X118.999Y-114.881
X119.749Y-113.381
X119.749Y-114.131
X119.749Y-114.881
X120.499Y-113.381
X120.499Y-114.131
X120.499Y-114.881
X121.249Y-113.381
X121.249Y-114.131
X121.249Y-114.881
X121.999Y-113.381
X121.999Y-114.131
X121.999Y-114.881
X122.749Y-113.381
X122.749Y-114.131
X122.749Y-114.881
X123.499Y-113.381
X123.499Y-114.131
X123.499Y-114.881
X124.249Y-113.381
X124.249Y-114.131
X124.249Y-114.881
X124.999Y-113.381
X124.999Y-114.131
X124.999Y-114.881
X125.749Y-113.381
X125.749Y-114.131
X125.749Y-114.881
X126.499Y-113.381
X126.499Y-114.131
X126.499Y-114.881
X127.249Y-113.381
X127.249Y-114.131
X127.249Y-114.881
X127.999Y-113.381
X127.999Y-114.131
X127.999Y-114.881
X128.749Y-113.381
X128.749Y-114.131
X128.749Y-114.881
X129.499Y-113.381
X129.499Y-114.131
X129.499Y-114.881
X130.249Y-113.381
X130.249Y-114.131
X130.249Y-114.881
X130.999Y-113.381
X130.999Y-114.131
X130.999Y-114.881
X131.749Y-113.381
X131.749Y-114.131
X131.749Y-114.881
X132.499Y-113.381
X132.499Y-114.131
X132.499Y-114.881
X133.249Y-113.381
X133.249Y-114.131
X133.249Y-114.881
X133.999Y-113.381
X133.999Y-114.131
X133.999Y-114.881
X134.749Y-113.381
X134.749Y-114.131
X134.749Y-114.881
X135.499Y-113.381
X135.499Y-114.131
X135.499Y-114.881
X136.249Y-113.381
X136.249Y-114.131
X136.249Y-114.881
X136.999Y-113.381
X136.999Y-114.131
X136.999Y-114.881
X137.749Y-113.381
X137.749Y-114.131
X137.749Y-114.881
X138.499Y-113.381
X138.499Y-114.131
X138.499Y-114.881
X139.249Y-113.381
X139.249Y-114.131
X139.249Y-114.881
X139.999Y-113.381
X139.999Y-114.131
X139.999Y-114.881
X140.749Y-113.381
X140.749Y-114.131
X140.749Y-114.881
X141.499Y-113.381
X141.499Y-114.131
X141.499Y-114.881
X142.249Y-113.381
X142.249Y-114.131
X142.249Y-114.881
X142.999Y-113.381
X142.999Y-114.131
X142.999Y-114.881
X143.749Y-113.381
X143.749Y-114.131
X143.749Y-114.881
X144.499Y-113.381
X144.499Y-114.131
X144.499Y-114.881
X145.249Y-113.381
X145.249Y-114.131
X145.249Y-114.881
X145.999Y-113.381
X145.999Y-114.131
X145.999Y-114.881
X146.749Y-113.381
X146.749Y-114.131
X146.749Y-114.881
X147.875Y-114.255
X148.375Y-114.755
X148.875Y-115.255
X149.375Y-115.755
X149.875Y-116.255
X150.999Y-83.381
X150.999Y-84.131
X150.999Y-84.881
X150.999Y-85.631
X150.999Y-86.381
X150.999Y-87.131
X150.999Y-87.881
X150.999Y-88.631
X150.999Y-89.381
X150.999Y-90.131
X150.999Y-90.881
X150.999Y-91.631
X150.999Y-92.381
X150.999Y-93.131
X150.999Y-93.881
X150.999Y-94.631
X150.999Y-95.381
X150.999Y-96.131
X150.999Y-96.881
X150.999Y-97.631
X150.999Y-98.381
X150.999Y-99.131
X150.999Y-99.881
X150.999Y-100.631
X150.999Y-101.381
X150.999Y-102.131
X150.999Y-102.881
X150.999Y-103.631
X150.999Y-104.381
X150.999Y-105.131
X150.999Y-105.881
X150.999Y-106.631
X150.999Y-107.381
X150.999Y-108.131
X150.999Y-108.881
X150.999Y-109.631
X150.999Y-110.381
X150.999Y-111.131
X150.999Y-111.881
X150.999Y-112.631
X150.999Y-113.381
X150.999Y-114.131
X150.999Y-114.881
X150.999Y-115.631
X151.749Y-83.381
X151.749Y-84.131
X151.749Y-84.881
X151.749Y-85.631
X151.749Y-86.381
X151.749Y-87.131
X151.749Y-87.881
X151.749Y-88.631
X151.749Y-89.381
X151.749Y-90.131
X151.749Y-90.881
X151.749Y-91.631
X151.749Y-92.381
X151.749Y-93.131
X151.749Y-93.881
X151.749Y-94.631
X151.749Y-95.381
X151.749Y-96.131
X151.749Y-96.881
X151.749Y-97.631
X151.749Y-98.381
X151.749Y-99.131
X151.749Y-99.881
X151.749Y-100.631
X151.749Y-101.381
X151.749Y-102.131
X151.749Y-102.881
X151.749Y-103.631
X151.749Y-104.381
X151.749Y-105.131
X151.749Y-105.881
X151.749Y-106.631
X151.749Y-107.381
X151.749Y-108.131
X151.749Y-108.881
X151.749Y-109.631
X151.749Y-110.381
X151.749Y-111.131
X151.749Y-111.881
X151.749Y-112.631
X151.749Y-113.381
X151.749Y-114.131
X151.749Y-114.881
X151.749Y-115.631
X152.499Y-83.381
X152.499Y-84.131
X152.499Y-84.881
X152.499Y-85.631
X152.499Y-86.381
X152.499Y-87.131
X152.499Y-87.881
X152.499Y-88.631
X152.499Y-89.381
X152.499Y-90.131
X152.499Y-90.881
X152.499Y-91.631
X152.499Y-92.381
X152.499Y-93.131
X152.499Y-93.881
X152.499Y-94.631
X152.499Y-95.381
X152.499Y-96.131
X152.499Y-96.881
X152.499Y-97.631
X152.499Y-98.381
X152.499Y-99.131
X152.499Y-99.881
X152.499Y-100.631
X152.499Y-101.381
X152.499Y-102.131
X152.499Y-102.881
X152.499Y-103.631
X152.499Y-104.381
X152.499Y-105.131
X152.499Y-105.881
X152.499Y-106.631
X152.499Y-107.381
X152.499Y-108.131
X152.499Y-108.881
X152.499Y-109.631
X152.499Y-110.381
X152.499Y-111.131
X152.499Y-111.881
X152.499Y-112.631
X152.499Y-113.381
X152.499Y-114.131
X152.499Y-114.881
X152.499Y-115.631
T3
X111.459Y-80.631
X116.539Y-80.631
T4
X76.249Y-80.631
X76.25Y-118.13
X151.75Y-80.63
X151.75Y-118.13
T0
M30
