M48
; DRILL file {KiCad (5.1.10)-1} date 08/23/21 10:07:07
; FORMAT={-:-/ absolute / metric / decimal}
; #@! TF.CreationDate,2021-08-23T10:07:07+02:00
; #@! TF.GenerationSoftware,Kicad,Pcbnew,(5.1.10)-1
; #@! TF.FileFunction,NonPlated,1,4,NPTH
FMAT,2
METRIC
%
G90
G05
T0
M30
