(kicad_sch (version 20211123) (generator eeschema)

  (uuid 4c50a412-5ab3-4952-a7d2-959c546ffd9c)

  (paper "A4")

  (lib_symbols
    (symbol "Connector_Generic:Conn_01x01" (pin_names (offset 1.016) hide) (in_bom yes) (on_board yes)
      (property "Reference" "J" (id 0) (at 0 2.54 0)
        (effects (font (size 1.27 1.27)))
      )
      (property "Value" "Conn_01x01" (id 1) (at 0 -2.54 0)
        (effects (font (size 1.27 1.27)))
      )
      (property "Footprint" "" (id 2) (at 0 0 0)
        (effects (font (size 1.27 1.27)) hide)
      )
      (property "Datasheet" "~" (id 3) (at 0 0 0)
        (effects (font (size 1.27 1.27)) hide)
      )
      (property "ki_keywords" "connector" (id 4) (at 0 0 0)
        (effects (font (size 1.27 1.27)) hide)
      )
      (property "ki_description" "Generic connector, single row, 01x01, script generated (kicad-library-utils/schlib/autogen/connector/)" (id 5) (at 0 0 0)
        (effects (font (size 1.27 1.27)) hide)
      )
      (property "ki_fp_filters" "Connector*:*_1x??_*" (id 6) (at 0 0 0)
        (effects (font (size 1.27 1.27)) hide)
      )
      (symbol "Conn_01x01_1_1"
        (rectangle (start -1.27 0.127) (end 0 -0.127)
          (stroke (width 0.1524) (type default) (color 0 0 0 0))
          (fill (type none))
        )
        (rectangle (start -1.27 1.27) (end 1.27 -1.27)
          (stroke (width 0.254) (type default) (color 0 0 0 0))
          (fill (type background))
        )
        (pin passive line (at -5.08 0 0) (length 3.81)
          (name "Pin_1" (effects (font (size 1.27 1.27))))
          (number "1" (effects (font (size 1.27 1.27))))
        )
      )
    )
    (symbol "Connector_Generic:Conn_01x02" (pin_names (offset 1.016) hide) (in_bom yes) (on_board yes)
      (property "Reference" "J" (id 0) (at 0 2.54 0)
        (effects (font (size 1.27 1.27)))
      )
      (property "Value" "Conn_01x02" (id 1) (at 0 -5.08 0)
        (effects (font (size 1.27 1.27)))
      )
      (property "Footprint" "" (id 2) (at 0 0 0)
        (effects (font (size 1.27 1.27)) hide)
      )
      (property "Datasheet" "~" (id 3) (at 0 0 0)
        (effects (font (size 1.27 1.27)) hide)
      )
      (property "ki_keywords" "connector" (id 4) (at 0 0 0)
        (effects (font (size 1.27 1.27)) hide)
      )
      (property "ki_description" "Generic connector, single row, 01x02, script generated (kicad-library-utils/schlib/autogen/connector/)" (id 5) (at 0 0 0)
        (effects (font (size 1.27 1.27)) hide)
      )
      (property "ki_fp_filters" "Connector*:*_1x??_*" (id 6) (at 0 0 0)
        (effects (font (size 1.27 1.27)) hide)
      )
      (symbol "Conn_01x02_1_1"
        (rectangle (start -1.27 -2.413) (end 0 -2.667)
          (stroke (width 0.1524) (type default) (color 0 0 0 0))
          (fill (type none))
        )
        (rectangle (start -1.27 0.127) (end 0 -0.127)
          (stroke (width 0.1524) (type default) (color 0 0 0 0))
          (fill (type none))
        )
        (rectangle (start -1.27 1.27) (end 1.27 -3.81)
          (stroke (width 0.254) (type default) (color 0 0 0 0))
          (fill (type background))
        )
        (pin passive line (at -5.08 0 0) (length 3.81)
          (name "Pin_1" (effects (font (size 1.27 1.27))))
          (number "1" (effects (font (size 1.27 1.27))))
        )
        (pin passive line (at -5.08 -2.54 0) (length 3.81)
          (name "Pin_2" (effects (font (size 1.27 1.27))))
          (number "2" (effects (font (size 1.27 1.27))))
        )
      )
    )
    (symbol "power:GND" (power) (pin_names (offset 0)) (in_bom yes) (on_board yes)
      (property "Reference" "#PWR" (id 0) (at 0 -6.35 0)
        (effects (font (size 1.27 1.27)) hide)
      )
      (property "Value" "GND" (id 1) (at 0 -3.81 0)
        (effects (font (size 1.27 1.27)))
      )
      (property "Footprint" "" (id 2) (at 0 0 0)
        (effects (font (size 1.27 1.27)) hide)
      )
      (property "Datasheet" "" (id 3) (at 0 0 0)
        (effects (font (size 1.27 1.27)) hide)
      )
      (property "ki_keywords" "power-flag" (id 4) (at 0 0 0)
        (effects (font (size 1.27 1.27)) hide)
      )
      (property "ki_description" "Power symbol creates a global label with name \"GND\" , ground" (id 5) (at 0 0 0)
        (effects (font (size 1.27 1.27)) hide)
      )
      (symbol "GND_0_1"
        (polyline
          (pts
            (xy 0 0)
            (xy 0 -1.27)
            (xy 1.27 -1.27)
            (xy 0 -2.54)
            (xy -1.27 -1.27)
            (xy 0 -1.27)
          )
          (stroke (width 0) (type default) (color 0 0 0 0))
          (fill (type none))
        )
      )
      (symbol "GND_1_1"
        (pin power_in line (at 0 0 270) (length 0) hide
          (name "GND" (effects (font (size 1.27 1.27))))
          (number "1" (effects (font (size 1.27 1.27))))
        )
      )
    )
  )

  (junction (at 187.96 36.83) (diameter 0) (color 0 0 0 0)
    (uuid 23cb388a-ecc0-448d-b54c-201de6091a1f)
  )
  (junction (at 205.74 36.83) (diameter 0) (color 0 0 0 0)
    (uuid 5222a138-2e57-42b2-9e69-7e1ef997e4b4)
  )
  (junction (at 196.85 36.83) (diameter 0) (color 0 0 0 0)
    (uuid fa33d719-a7da-4879-bf3a-8e0e6d4a3db6)
  )

  (wire (pts (xy 171.45 36.83) (xy 187.96 36.83))
    (stroke (width 0) (type default) (color 0 0 0 0))
    (uuid 13884fcf-928c-47bf-b8d7-b7b9066ee2b5)
  )
  (wire (pts (xy 187.96 36.83) (xy 187.96 30.48))
    (stroke (width 0) (type default) (color 0 0 0 0))
    (uuid 27655af5-178c-4ead-a517-3846f983ae30)
  )
  (wire (pts (xy 129.54 30.48) (xy 129.54 40.64))
    (stroke (width 0) (type default) (color 0 0 0 0))
    (uuid 43893d18-5987-43b7-8340-e6fc9af4ad85)
  )
  (wire (pts (xy 171.45 30.48) (xy 171.45 36.83))
    (stroke (width 0) (type default) (color 0 0 0 0))
    (uuid 45280a00-7381-483d-b6da-979675480fad)
  )
  (wire (pts (xy 132.08 40.64) (xy 132.08 30.48))
    (stroke (width 0) (type default) (color 0 0 0 0))
    (uuid 46e32d1f-c3f5-4158-95c0-84f478213dc2)
  )
  (wire (pts (xy 222.25 30.48) (xy 222.25 36.83))
    (stroke (width 0) (type default) (color 0 0 0 0))
    (uuid 8a4d9297-b331-4410-985d-fe9323551c8f)
  )
  (wire (pts (xy 222.25 36.83) (xy 205.74 36.83))
    (stroke (width 0) (type default) (color 0 0 0 0))
    (uuid 8d267192-58e7-40a9-b3d2-9a232157e2f0)
  )
  (wire (pts (xy 196.85 43.18) (xy 196.85 36.83))
    (stroke (width 0) (type default) (color 0 0 0 0))
    (uuid a3b33a36-2a6f-4b2c-ab50-86753b78957c)
  )
  (wire (pts (xy 205.74 36.83) (xy 196.85 36.83))
    (stroke (width 0) (type default) (color 0 0 0 0))
    (uuid ca389067-1dff-46cb-a035-945227c2c203)
  )
  (wire (pts (xy 196.85 36.83) (xy 187.96 36.83))
    (stroke (width 0) (type default) (color 0 0 0 0))
    (uuid f1a3caa6-6a5b-4049-bcaf-4980788abfe9)
  )
  (wire (pts (xy 129.54 40.64) (xy 132.08 40.64))
    (stroke (width 0) (type default) (color 0 0 0 0))
    (uuid f4c22c0a-eb84-4b6a-9006-aeb238ecb86d)
  )
  (wire (pts (xy 205.74 30.48) (xy 205.74 36.83))
    (stroke (width 0) (type default) (color 0 0 0 0))
    (uuid fea45c27-772e-4251-a17f-f475ffb870a4)
  )

  (symbol (lib_id "Connector_Generic:Conn_01x02") (at 129.54 25.4 90) (unit 1)
    (in_bom yes) (on_board yes)
    (uuid 00000000-0000-0000-0000-00005eafbca5)
    (property "Reference" "J1" (id 0) (at 134.3152 26.3144 90)
      (effects (font (size 1.27 1.27)) (justify right))
    )
    (property "Value" "" (id 1) (at 134.3152 28.6258 90)
      (effects (font (size 1.27 1.27)) (justify right))
    )
    (property "Footprint" "" (id 2) (at 129.54 25.4 0)
      (effects (font (size 1.27 1.27)) hide)
    )
    (property "Datasheet" "~" (id 3) (at 129.54 25.4 0)
      (effects (font (size 1.27 1.27)) hide)
    )
    (pin "1" (uuid b9bc243a-d6b6-47a0-9517-d6379c2e76ca))
    (pin "2" (uuid b7ab2511-50f6-4a32-8a27-112555d3c4cb))
  )

  (symbol (lib_id "Connector_Generic:Conn_01x01") (at 171.45 25.4 90) (unit 1)
    (in_bom yes) (on_board yes)
    (uuid 00000000-0000-0000-0000-00005eafc205)
    (property "Reference" "J2" (id 0) (at 173.6852 26.3144 90)
      (effects (font (size 1.27 1.27)) (justify right))
    )
    (property "Value" "" (id 1) (at 173.6852 28.6258 90)
      (effects (font (size 1.27 1.27)) (justify right))
    )
    (property "Footprint" "" (id 2) (at 171.45 25.4 0)
      (effects (font (size 1.27 1.27)) hide)
    )
    (property "Datasheet" "~" (id 3) (at 171.45 25.4 0)
      (effects (font (size 1.27 1.27)) hide)
    )
    (pin "1" (uuid 21fa24f7-5789-409f-836c-4c1ab4687bb5))
  )

  (symbol (lib_id "power:GND") (at 196.85 43.18 0) (unit 1)
    (in_bom yes) (on_board yes)
    (uuid 00000000-0000-0000-0000-00005eafe9e3)
    (property "Reference" "#PWR0101" (id 0) (at 196.85 49.53 0)
      (effects (font (size 1.27 1.27)) hide)
    )
    (property "Value" "" (id 1) (at 196.977 47.5742 0))
    (property "Footprint" "" (id 2) (at 196.85 43.18 0)
      (effects (font (size 1.27 1.27)) hide)
    )
    (property "Datasheet" "" (id 3) (at 196.85 43.18 0)
      (effects (font (size 1.27 1.27)) hide)
    )
    (pin "1" (uuid c8a72608-e949-4439-af6b-91d7beb2feb3))
  )

  (symbol (lib_id "Connector_Generic:Conn_01x01") (at 187.96 25.4 90) (unit 1)
    (in_bom yes) (on_board yes)
    (uuid 00000000-0000-0000-0000-00005eb0085e)
    (property "Reference" "J3" (id 0) (at 190.1952 26.3144 90)
      (effects (font (size 1.27 1.27)) (justify right))
    )
    (property "Value" "" (id 1) (at 190.1952 28.6258 90)
      (effects (font (size 1.27 1.27)) (justify right))
    )
    (property "Footprint" "" (id 2) (at 187.96 25.4 0)
      (effects (font (size 1.27 1.27)) hide)
    )
    (property "Datasheet" "~" (id 3) (at 187.96 25.4 0)
      (effects (font (size 1.27 1.27)) hide)
    )
    (pin "1" (uuid a53c005e-b787-4243-8fa9-f6ec760ff712))
  )

  (symbol (lib_id "Connector_Generic:Conn_01x01") (at 205.74 25.4 90) (unit 1)
    (in_bom yes) (on_board yes)
    (uuid 00000000-0000-0000-0000-00005eb00c5f)
    (property "Reference" "J4" (id 0) (at 207.9752 26.3144 90)
      (effects (font (size 1.27 1.27)) (justify right))
    )
    (property "Value" "" (id 1) (at 207.9752 28.6258 90)
      (effects (font (size 1.27 1.27)) (justify right))
    )
    (property "Footprint" "" (id 2) (at 205.74 25.4 0)
      (effects (font (size 1.27 1.27)) hide)
    )
    (property "Datasheet" "~" (id 3) (at 205.74 25.4 0)
      (effects (font (size 1.27 1.27)) hide)
    )
    (pin "1" (uuid 478966e8-76eb-4ea4-836c-e1f12c97c2d3))
  )

  (symbol (lib_id "Connector_Generic:Conn_01x01") (at 222.25 25.4 90) (unit 1)
    (in_bom yes) (on_board yes)
    (uuid 00000000-0000-0000-0000-00005eb012aa)
    (property "Reference" "J5" (id 0) (at 224.4852 26.3144 90)
      (effects (font (size 1.27 1.27)) (justify right))
    )
    (property "Value" "" (id 1) (at 224.4852 28.6258 90)
      (effects (font (size 1.27 1.27)) (justify right))
    )
    (property "Footprint" "" (id 2) (at 222.25 25.4 0)
      (effects (font (size 1.27 1.27)) hide)
    )
    (property "Datasheet" "~" (id 3) (at 222.25 25.4 0)
      (effects (font (size 1.27 1.27)) hide)
    )
    (pin "1" (uuid 9f1a6007-2c60-4de3-861d-70321bbdb38b))
  )

  (sheet_instances
    (path "/" (page "1"))
  )

  (symbol_instances
    (path "/00000000-0000-0000-0000-00005eafe9e3"
      (reference "#PWR0101") (unit 1) (value "GND") (footprint "")
    )
    (path "/00000000-0000-0000-0000-00005eafbca5"
      (reference "J1") (unit 1) (value "Conn_01x02") (footprint "PPMS_ANALOG_RF:SCRW_CON_2X1")
    )
    (path "/00000000-0000-0000-0000-00005eafc205"
      (reference "J2") (unit 1) (value "Conn_01x01") (footprint "PPMS_ANALOG_RF:RF_SREW_HOLE_2.5mm")
    )
    (path "/00000000-0000-0000-0000-00005eb0085e"
      (reference "J3") (unit 1) (value "Conn_01x01") (footprint "PPMS_ANALOG_RF:RF_SREW_HOLE_2.5mm")
    )
    (path "/00000000-0000-0000-0000-00005eb00c5f"
      (reference "J4") (unit 1) (value "Conn_01x01") (footprint "PPMS_ANALOG_RF:RF_SREW_HOLE_2.5mm")
    )
    (path "/00000000-0000-0000-0000-00005eb012aa"
      (reference "J5") (unit 1) (value "Conn_01x01") (footprint "PPMS_ANALOG_RF:RF_SREW_HOLE_2.5mm")
    )
  )
)
