    VersionID HFSS2023
    NumberFrequencies 1
    NumberMeshes 1
    Frequency 1000000000.000000
    MeshAssemblyIndex -1
    Success 1
    SolverName Nondomain
    IterativeSolver 0
    DistributedSolver 0
    Precision 1
    NumTasks 1
    NumTets 74604
    BasisOrder 0
    TREECOTREE 0
    MemoryMasterMB 365.000000
    MemoryTotalMB 775.320312
    NumMeshStatisticsTets 74604
    MemoryForSMatrixOnlyMB 588.608963
    LowFrequencyCutoff 999308.193333
    MemoryDistributedTotalMB -1.000000
    MemoryDistributedSMatrixOnlyMB -1.000000
    MemoryTotalAccurate 1
    MemorySMatrixOnlyAccurate 0
    MemoryDistributedTotalAccurate 0
    MemoryDistributedSMatrixOnlyAccurate 0
    SingularMatrix 0
    NumCores 4
    NumKrylovVectors -1
    MatrixSize 105364
    TotalModes 2
    NnzGrowthFactor 16.014249
