G04 #@! TF.GenerationSoftware,KiCad,Pcbnew,(5.1.6)-1*
G04 #@! TF.CreationDate,2020-09-23T12:21:36+02:00*
G04 #@! TF.ProjectId,TRANS_A1l,5452414e-535f-4413-916c-2e6b69636164,rev?*
G04 #@! TF.SameCoordinates,Original*
G04 #@! TF.FileFunction,Copper,L2,Bot*
G04 #@! TF.FilePolarity,Positive*
%FSLAX46Y46*%
G04 Gerber Fmt 4.6, Leading zero omitted, Abs format (unit mm)*
G04 Created by KiCad (PCBNEW (5.1.6)-1) date 2020-09-23 12:21:36*
%MOMM*%
%LPD*%
G01*
G04 APERTURE LIST*
G04 #@! TA.AperFunction,NonConductor*
%ADD10C,0.100000*%
G04 #@! TD*
G04 #@! TA.AperFunction,EtchedComponent*
%ADD11C,0.100000*%
G04 #@! TD*
G04 #@! TA.AperFunction,Conductor*
%ADD12C,3.000000*%
G04 #@! TD*
G04 #@! TA.AperFunction,Conductor*
%ADD13C,0.150000*%
G04 #@! TD*
G04 #@! TA.AperFunction,ComponentPad*
%ADD14C,4.000000*%
G04 #@! TD*
G04 #@! TA.AperFunction,ComponentPad*
%ADD15C,3.000000*%
G04 #@! TD*
G04 #@! TA.AperFunction,ViaPad*
%ADD16C,0.450000*%
G04 #@! TD*
G04 #@! TA.AperFunction,ViaPad*
%ADD17C,0.600000*%
G04 #@! TD*
G04 #@! TA.AperFunction,Conductor*
%ADD18C,0.150000*%
G04 #@! TD*
G04 #@! TA.AperFunction,Conductor*
%ADD19C,3.000000*%
G04 #@! TD*
G04 #@! TA.AperFunction,Conductor*
%ADD20C,0.100000*%
G04 #@! TD*
G04 APERTURE END LIST*
D10*
G36*
X78498920Y-111632960D02*
G01*
X78998920Y-112132960D01*
X148998920Y-112132960D01*
X149498920Y-111632960D01*
X149498920Y-78382960D01*
X153998920Y-78382960D01*
X153998920Y-120382960D01*
X149498920Y-120382960D01*
X144998920Y-115882960D01*
X82998920Y-115882960D01*
X78498920Y-120382960D01*
X73998920Y-120382960D01*
X73998920Y-78382960D01*
X78498920Y-78382960D01*
X78498920Y-111632960D01*
G37*
D11*
G36*
X114999460Y-92231480D02*
G01*
X116449460Y-93731480D01*
X116549460Y-93731480D01*
X117999460Y-92131480D01*
X117999460Y-91331480D01*
X114999460Y-91331480D01*
X114999460Y-92231480D01*
G37*
D12*
X116499460Y-91331480D03*
D13*
X116499460Y-93681480D03*
D14*
X76249460Y-80631480D03*
X151750000Y-80630000D03*
X76250000Y-118130000D03*
X151750000Y-118130000D03*
D15*
X116539460Y-80631480D03*
X111459460Y-80631480D03*
D16*
X114099460Y-95731480D03*
D17*
X98749460Y-113381480D03*
X111499460Y-113381480D03*
X112999460Y-113381480D03*
X95749460Y-113381480D03*
X110749460Y-113381480D03*
X105499460Y-113381480D03*
X106249460Y-113381480D03*
X86749460Y-113381480D03*
X112249460Y-113381480D03*
X113749460Y-113381480D03*
X101749460Y-113381480D03*
X82249460Y-113381480D03*
X85249460Y-113381480D03*
X84499460Y-113381480D03*
X88999460Y-113381480D03*
X82999460Y-113381480D03*
X87499460Y-113381480D03*
X94999460Y-113381480D03*
X92749460Y-113381480D03*
X100249460Y-113381480D03*
X102499460Y-113381480D03*
X99499460Y-113381480D03*
X93499460Y-113381480D03*
X107749460Y-113381480D03*
X97999460Y-113381480D03*
X89749460Y-113381480D03*
X100999460Y-113381480D03*
X81499460Y-113381480D03*
X83749460Y-113381480D03*
X97249460Y-113381480D03*
X96499460Y-113381480D03*
X85999460Y-113381480D03*
X109999460Y-113381480D03*
X109249460Y-113381480D03*
X94249460Y-113381480D03*
X106999460Y-113381480D03*
X103249460Y-113381480D03*
X88249460Y-113381480D03*
X91249460Y-113381480D03*
X91999460Y-113381480D03*
X104749460Y-113381480D03*
X108499460Y-113381480D03*
X90499460Y-113381480D03*
X103999460Y-113381480D03*
X138499460Y-113381480D03*
X136999460Y-113381480D03*
X146749460Y-113381480D03*
X121999460Y-113381480D03*
X122749460Y-113381480D03*
X119749460Y-113381480D03*
X127249460Y-113381480D03*
X134749460Y-113381480D03*
X126499460Y-113381480D03*
X141499460Y-113381480D03*
X131749460Y-113381480D03*
X129499460Y-113381480D03*
X132499460Y-113381480D03*
X117499460Y-113381480D03*
X127999460Y-113381480D03*
X136249460Y-113381480D03*
X145249460Y-113381480D03*
X118249460Y-113381480D03*
X121249460Y-113381480D03*
X115999460Y-113381480D03*
X142249460Y-113381480D03*
X120499460Y-113381480D03*
X116749460Y-113381480D03*
X135499460Y-113381480D03*
X142999460Y-113381480D03*
X133249460Y-113381480D03*
X139249460Y-113381480D03*
X125749460Y-113381480D03*
X140749460Y-113381480D03*
X130999460Y-113381480D03*
X128749460Y-113381480D03*
X123499460Y-113381480D03*
X144499460Y-113381480D03*
X145999460Y-113381480D03*
X143749460Y-113381480D03*
X137749460Y-113381480D03*
X133999460Y-113381480D03*
X124249460Y-113381480D03*
X118999460Y-113381480D03*
X124999460Y-113381480D03*
X130249460Y-113381480D03*
X139999460Y-113381480D03*
X115249460Y-113381480D03*
X114499460Y-113381480D03*
X98749460Y-114881480D03*
X111499460Y-114881480D03*
X112999460Y-114881480D03*
X95749460Y-114881480D03*
X110749460Y-114881480D03*
X105499460Y-114881480D03*
X106249460Y-114881480D03*
X86749460Y-114881480D03*
X112249460Y-114881480D03*
X113749460Y-114881480D03*
X101749460Y-114881480D03*
X82249460Y-114881480D03*
X85249460Y-114881480D03*
X84499460Y-114881480D03*
X88999460Y-114881480D03*
X82999460Y-114881480D03*
X87499460Y-114881480D03*
X94999460Y-114881480D03*
X92749460Y-114881480D03*
X100249460Y-114881480D03*
X102499460Y-114881480D03*
X99499460Y-114881480D03*
X93499460Y-114881480D03*
X107749460Y-114881480D03*
X97999460Y-114881480D03*
X89749460Y-114881480D03*
X100999460Y-114881480D03*
X81499460Y-114881480D03*
X83749460Y-114881480D03*
X97249460Y-114881480D03*
X96499460Y-114881480D03*
X85999460Y-114881480D03*
X109999460Y-114881480D03*
X109249460Y-114881480D03*
X94249460Y-114881480D03*
X106999460Y-114881480D03*
X103249460Y-114881480D03*
X88249460Y-114881480D03*
X91249460Y-114881480D03*
X91999460Y-114881480D03*
X104749460Y-114881480D03*
X108499460Y-114881480D03*
X90499460Y-114881480D03*
X103999460Y-114881480D03*
X138499460Y-114881480D03*
X136999460Y-114881480D03*
X146749460Y-114881480D03*
X121999460Y-114881480D03*
X122749460Y-114881480D03*
X119749460Y-114881480D03*
X127249460Y-114881480D03*
X134749460Y-114881480D03*
X126499460Y-114881480D03*
X141499460Y-114881480D03*
X131749460Y-114881480D03*
X129499460Y-114881480D03*
X132499460Y-114881480D03*
X117499460Y-114881480D03*
X127999460Y-114881480D03*
X136249460Y-114881480D03*
X145249460Y-114881480D03*
X118249460Y-114881480D03*
X121249460Y-114881480D03*
X115999460Y-114881480D03*
X142249460Y-114881480D03*
X120499460Y-114881480D03*
X116749460Y-114881480D03*
X135499460Y-114881480D03*
X142999460Y-114881480D03*
X133249460Y-114881480D03*
X139249460Y-114881480D03*
X125749460Y-114881480D03*
X140749460Y-114881480D03*
X130999460Y-114881480D03*
X128749460Y-114881480D03*
X123499460Y-114881480D03*
X144499460Y-114881480D03*
X145999460Y-114881480D03*
X143749460Y-114881480D03*
X137749460Y-114881480D03*
X133999460Y-114881480D03*
X124249460Y-114881480D03*
X118999460Y-114881480D03*
X124999460Y-114881480D03*
X130249460Y-114881480D03*
X139999460Y-114881480D03*
X115249460Y-114881480D03*
X114499460Y-114881480D03*
X146749460Y-114131480D03*
X145249460Y-114131480D03*
X144499460Y-114131480D03*
X145999460Y-114131480D03*
X142249460Y-114131480D03*
X142999460Y-114131480D03*
X143749460Y-114131480D03*
X140749460Y-114131480D03*
X133249460Y-114131480D03*
X130249460Y-114131480D03*
X135499460Y-114131480D03*
X138499460Y-114131480D03*
X127249460Y-114131480D03*
X130999460Y-114131480D03*
X134749460Y-114131480D03*
X139249460Y-114131480D03*
X127999460Y-114131480D03*
X131749460Y-114131480D03*
X118249460Y-114131480D03*
X125749460Y-114131480D03*
X128749460Y-114131480D03*
X120499460Y-114131480D03*
X123499460Y-114131480D03*
X119749460Y-114131480D03*
X137749460Y-114131480D03*
X136249460Y-114131480D03*
X133999460Y-114131480D03*
X124249460Y-114131480D03*
X121249460Y-114131480D03*
X118999460Y-114131480D03*
X124999460Y-114131480D03*
X139999460Y-114131480D03*
X136999460Y-114131480D03*
X121999460Y-114131480D03*
X122749460Y-114131480D03*
X126499460Y-114131480D03*
X141499460Y-114131480D03*
X129499460Y-114131480D03*
X132499460Y-114131480D03*
X117499460Y-114131480D03*
X115999460Y-114131480D03*
X116749460Y-114131480D03*
X115249460Y-114131480D03*
X114499460Y-114131480D03*
X81499460Y-114131480D03*
X82999460Y-114131480D03*
X83749460Y-114131480D03*
X82249460Y-114131480D03*
X85999460Y-114131480D03*
X85249460Y-114131480D03*
X84499460Y-114131480D03*
X87499460Y-114131480D03*
X94999460Y-114131480D03*
X97999460Y-114131480D03*
X92749460Y-114131480D03*
X89749460Y-114131480D03*
X100999460Y-114131480D03*
X97249460Y-114131480D03*
X93499460Y-114131480D03*
X88999460Y-114131480D03*
X100249460Y-114131480D03*
X96499460Y-114131480D03*
X109999460Y-114131480D03*
X102499460Y-114131480D03*
X99499460Y-114131480D03*
X107749460Y-114131480D03*
X104749460Y-114131480D03*
X108499460Y-114131480D03*
X90499460Y-114131480D03*
X91999460Y-114131480D03*
X94249460Y-114131480D03*
X103999460Y-114131480D03*
X106999460Y-114131480D03*
X109249460Y-114131480D03*
X103249460Y-114131480D03*
X88249460Y-114131480D03*
X91249460Y-114131480D03*
X106249460Y-114131480D03*
X105499460Y-114131480D03*
X101749460Y-114131480D03*
X86749460Y-114131480D03*
X98749460Y-114131480D03*
X95749460Y-114131480D03*
X110749460Y-114131480D03*
X112249460Y-114131480D03*
X111499460Y-114131480D03*
X112999460Y-114131480D03*
X113749460Y-114131480D03*
X75499460Y-83381480D03*
X75499460Y-84881480D03*
X75499460Y-85631480D03*
X75499460Y-84131480D03*
X75499460Y-86381480D03*
X75499460Y-111881480D03*
X75499460Y-112631480D03*
X75499460Y-114131480D03*
X75499460Y-113381480D03*
X75499460Y-114881480D03*
X75499460Y-115631480D03*
X76249460Y-83381480D03*
X76249460Y-84881480D03*
X76249460Y-85631480D03*
X76249460Y-84131480D03*
X76249460Y-86381480D03*
X76249460Y-111881480D03*
X76249460Y-112631480D03*
X76249460Y-114131480D03*
X76249460Y-113381480D03*
X76249460Y-114881480D03*
X76249460Y-115631480D03*
X150999460Y-83381480D03*
X150999460Y-84881480D03*
X150999460Y-85631480D03*
X150999460Y-84131480D03*
X150999460Y-86381480D03*
X150999460Y-111881480D03*
X150999460Y-112631480D03*
X150999460Y-114131480D03*
X150999460Y-113381480D03*
X150999460Y-114881480D03*
X150999460Y-115631480D03*
X152499460Y-83381480D03*
X152499460Y-84881480D03*
X152499460Y-85631480D03*
X152499460Y-84131480D03*
X152499460Y-86381480D03*
X152499460Y-111881480D03*
X152499460Y-112631480D03*
X152499460Y-114131480D03*
X152499460Y-113381480D03*
X152499460Y-114881480D03*
X152499460Y-115631480D03*
X151749460Y-83381480D03*
X151749460Y-84881480D03*
X151749460Y-85631480D03*
X151749460Y-84131480D03*
X151749460Y-86381480D03*
X151749460Y-111881480D03*
X151749460Y-112631480D03*
X151749460Y-114131480D03*
X151749460Y-113381480D03*
X151749460Y-114881480D03*
X151749460Y-115631480D03*
X149875470Y-116255470D03*
X149375470Y-115755470D03*
X148875470Y-115255470D03*
X148375470Y-114755470D03*
X147875470Y-114255470D03*
X78123990Y-116256010D03*
X78623990Y-115756010D03*
X79123990Y-115256010D03*
X79623990Y-114756010D03*
X80123990Y-114256010D03*
X76999460Y-114131480D03*
X76999460Y-113381480D03*
X76999460Y-86381480D03*
X76999460Y-114881480D03*
X76999460Y-112631480D03*
X76999460Y-115631480D03*
X76999460Y-111881480D03*
X76999460Y-84131480D03*
X76999460Y-85631480D03*
X76999460Y-84881480D03*
X76999460Y-83381480D03*
X76249460Y-107381480D03*
X76249460Y-103631480D03*
X76249460Y-90131480D03*
X76249460Y-108881480D03*
X76249460Y-88631480D03*
X76249460Y-105131480D03*
X76249460Y-93131480D03*
X76249460Y-108131480D03*
X76249460Y-96131480D03*
X76249460Y-97631480D03*
X76249460Y-111131480D03*
X76249460Y-105881480D03*
X76249460Y-100631480D03*
X76999460Y-94631480D03*
X76999460Y-97631480D03*
X76999460Y-90881480D03*
X76999460Y-104381480D03*
X76999460Y-99131480D03*
X76999460Y-96131480D03*
X76999460Y-99881480D03*
X76999460Y-96881480D03*
X76249460Y-93881480D03*
X76249460Y-101381480D03*
X76999460Y-89381480D03*
X76249460Y-92381480D03*
X76249460Y-110381480D03*
X76249460Y-102131480D03*
X76249460Y-91631480D03*
X76999460Y-106631480D03*
X76999460Y-93881480D03*
X76999460Y-109631480D03*
X76999460Y-101381480D03*
X76249460Y-90881480D03*
X76999460Y-108131480D03*
X76249460Y-99131480D03*
X76249460Y-99881480D03*
X76249460Y-89381480D03*
X76999460Y-105881480D03*
X76999460Y-108881480D03*
X76999460Y-102881480D03*
X76999460Y-111131480D03*
X76249460Y-87131480D03*
X76999460Y-93131480D03*
X76999460Y-105131480D03*
X76999460Y-102131480D03*
X76999460Y-100631480D03*
X76249460Y-106631480D03*
X76249460Y-109631480D03*
X76249460Y-104381480D03*
X76249460Y-98381480D03*
X76249460Y-102881480D03*
X76249460Y-87881480D03*
X76999460Y-90131480D03*
X76999460Y-91631480D03*
X76249460Y-96881480D03*
X76999460Y-103631480D03*
X76999460Y-110381480D03*
X76999460Y-92381480D03*
X76999460Y-95381480D03*
X76999460Y-98381480D03*
X76999460Y-88631480D03*
X76249460Y-95381480D03*
X76999460Y-107381480D03*
X76249460Y-94631480D03*
X75499460Y-88631480D03*
X75499460Y-93881480D03*
X75499460Y-90881480D03*
X76999460Y-87131480D03*
X76999460Y-87881480D03*
X75499460Y-102131480D03*
X75499460Y-102881480D03*
X75499460Y-105881480D03*
X75499460Y-90131480D03*
X75499460Y-87881480D03*
X75499460Y-98381480D03*
X75499460Y-91631480D03*
X75499460Y-89381480D03*
X75499460Y-87131480D03*
X75499460Y-100631480D03*
X75499460Y-107381480D03*
X75499460Y-108131480D03*
X75499460Y-108881480D03*
X75499460Y-92381480D03*
X75499460Y-106631480D03*
X75499460Y-101381480D03*
X75499460Y-93131480D03*
X75499460Y-96131480D03*
X75499460Y-95381480D03*
X75499460Y-99131480D03*
X75499460Y-97631480D03*
X75499460Y-104381480D03*
X75499460Y-96881480D03*
X75499460Y-110381480D03*
X75499460Y-94631480D03*
X75499460Y-103631480D03*
X75499460Y-99881480D03*
X75499460Y-105131480D03*
X75499460Y-111131480D03*
X75499460Y-109631480D03*
X151749460Y-110381480D03*
X151749460Y-106631480D03*
X152499460Y-107381480D03*
X152499460Y-92381480D03*
X152499460Y-90131480D03*
X152499460Y-108881480D03*
X152499460Y-105881480D03*
X152499460Y-87881480D03*
X152499460Y-110381480D03*
X152499460Y-106631480D03*
X152499460Y-102881480D03*
X151749460Y-102881480D03*
X152499460Y-109631480D03*
X151749460Y-91631480D03*
X152499460Y-104381480D03*
X152499460Y-93131480D03*
X152499460Y-95381480D03*
X152499460Y-111131480D03*
X151749460Y-89381480D03*
X152499460Y-87131480D03*
X152499460Y-108131480D03*
X151749460Y-87881480D03*
X152499460Y-91631480D03*
X151749460Y-87131480D03*
X152499460Y-89381480D03*
X151749460Y-109631480D03*
X151749460Y-104381480D03*
X151749460Y-94631480D03*
X152499460Y-93881480D03*
X151749460Y-90881480D03*
X151749460Y-95381480D03*
X152499460Y-94631480D03*
X152499460Y-105131480D03*
X152499460Y-90881480D03*
X152499460Y-88631480D03*
X152499460Y-103631480D03*
X150999460Y-111131480D03*
X150999460Y-93881480D03*
X150999460Y-103631480D03*
X150999460Y-110381480D03*
X150999460Y-104381480D03*
X150999460Y-90881480D03*
X150999460Y-102881480D03*
X150999460Y-93131480D03*
X150999460Y-107381480D03*
X150999460Y-92381480D03*
X150999460Y-87881480D03*
X150999460Y-109631480D03*
X150999460Y-89381480D03*
X150999460Y-88631480D03*
X150999460Y-108881480D03*
X150999460Y-91631480D03*
X150999460Y-108131480D03*
X150999460Y-90131480D03*
X150999460Y-105131480D03*
X150999460Y-94631480D03*
X150999460Y-87131480D03*
X150999460Y-105881480D03*
X150999460Y-106631480D03*
X150999460Y-95381480D03*
X151749460Y-93881480D03*
X151749460Y-92381480D03*
X151749460Y-108131480D03*
X151749460Y-88631480D03*
X151749460Y-105131480D03*
X151749460Y-111131480D03*
X151749460Y-93131480D03*
X151749460Y-105881480D03*
X151749460Y-107381480D03*
X151749460Y-90131480D03*
X151749460Y-108881480D03*
X151749460Y-103631480D03*
X152499460Y-96881480D03*
X152499460Y-102131480D03*
X152499460Y-101381480D03*
X152499460Y-98381480D03*
X151749460Y-99881480D03*
X152499460Y-100631480D03*
X151749460Y-96881480D03*
X152499460Y-99881480D03*
X152499460Y-99131480D03*
X152499460Y-96131480D03*
X151749460Y-101381480D03*
X151749460Y-98381480D03*
X151749460Y-102131480D03*
X151749460Y-99131480D03*
X152499460Y-97631480D03*
X150999460Y-96131480D03*
X150999460Y-99131480D03*
X150999460Y-101381480D03*
X150999460Y-97631480D03*
X150999460Y-100631480D03*
X150999460Y-102131480D03*
X150999460Y-98381480D03*
X150999460Y-99881480D03*
X150999460Y-96881480D03*
X151749460Y-97631480D03*
X151749460Y-100631480D03*
X151749460Y-96131480D03*
D18*
X116539460Y-90581480D02*
X116539460Y-88231480D01*
D19*
X116539460Y-91091480D02*
X116499460Y-91131480D01*
X116539460Y-80631480D02*
X116539460Y-91091480D01*
D20*
X114499460Y-95331480D02*
X114099460Y-95731480D01*
X115099460Y-95331480D02*
X114499460Y-95331480D01*
X116499460Y-93681480D02*
X116499460Y-93931480D01*
X116499460Y-93931480D02*
X115099460Y-95331480D01*
X116499460Y-93681480D02*
X116499460Y-91331480D01*
M02*
